%YAML 1.1
%TAG !u! tag:unity3d.com,2011:
--- !u!1 &4383088207491772868
GameObject:
  m_ObjectHideFlags: 0
  m_CorrespondingSourceObject: {fileID: 0}
  m_PrefabInstance: {fileID: 0}
  m_PrefabAsset: {fileID: 0}
  serializedVersion: 6
  m_Component:
  - component: {fileID: 4383088207491772866}
  - component: {fileID: 4383088207491772869}
  m_Layer: 0
  m_Name: UpgradeHolder
  m_TagString: Untagged
  m_Icon: {fileID: 0}
  m_NavMeshLayer: 0
  m_StaticEditorFlags: 0
  m_IsActive: 1
--- !u!4 &4383088207491772866
Transform:
  m_ObjectHideFlags: 0
  m_CorrespondingSourceObject: {fileID: 0}
  m_PrefabInstance: {fileID: 0}
  m_PrefabAsset: {fileID: 0}
  m_GameObject: {fileID: 4383088207491772868}
  m_LocalRotation: {x: 0, y: 0, z: 0, w: 1}
  m_LocalPosition: {x: 1217.567, y: 749.4281, z: 89870.484}
  m_LocalScale: {x: 1, y: 1, z: 1}
  m_Children: []
  m_Father: {fileID: 0}
  m_RootOrder: 0
  m_LocalEulerAnglesHint: {x: 0, y: 0, z: 0}
--- !u!114 &4383088207491772869
MonoBehaviour:
  m_ObjectHideFlags: 0
  m_CorrespondingSourceObject: {fileID: 0}
  m_PrefabInstance: {fileID: 0}
  m_PrefabAsset: {fileID: 0}
  m_GameObject: {fileID: 4383088207491772868}
  m_Enabled: 1
  m_EditorHideFlags: 0
  m_Script: {fileID: 11500000, guid: d462132319610e743823b01f061bd339, type: 3}
  m_Name: 
  m_EditorClassIdentifier: 
  storage: {fileID: 0}
  upgradeSaveManager: {fileID: 0}
  turbineUpgrades:
  - {fileID: 11400000, guid: 21b00507173cfe044a14391e12ecf853, type: 2}
  - {fileID: 11400000, guid: 307317a840df67e49a9bf3459a803459, type: 2}
  - {fileID: 11400000, guid: ad05824327b0112429ce84eaadd0df0f, type: 2}
  - {fileID: 11400000, guid: a66d0282f8d76d842b3b2de72865f111, type: 2}
  weaponUpgrades:
  - {fileID: 11400000, guid: df4233351fdcf0a41b31958191ae181f, type: 2}
  - {fileID: 11400000, guid: 33d8bd99a0f3ace44920c359e9e36432, type: 2}
  - {fileID: 11400000, guid: c149f4a9908da3745be51f7f2d1412b0, type: 2}
  - {fileID: 11400000, guid: de700bec49bd30849b057968e2a751f9, type: 2}
  hullUpgrades:
  - {fileID: 11400000, guid: d73b3bba794049c489f614fc20d821b0, type: 2}
  - {fileID: 11400000, guid: 1619526a03c87b74abd5dbac1fb1dcd1, type: 2}
  - {fileID: 11400000, guid: 1b47ff7e79f6fb8479eb700566c3959e, type: 2}
  - {fileID: 11400000, guid: 7b3d39ce369b5834ba53f6e5571891f5, type: 2}
  - {fileID: 11400000, guid: bd4563625dff1c64d82e10ec55be8f73, type: 2}
  - {fileID: 11400000, guid: 1773d92cbc1fdb24295752bf0ab7f11c, type: 2}
  selfRepairUpgrades:
  - {fileID: 11400000, guid: f159abf596833bd49b4920cc82a3643f, type: 2}
  - {fileID: 11400000, guid: 3d40ebc00f72a7043ba470ad9adbb219, type: 2}
  - {fileID: 11400000, guid: 2b0fece7bc90c4f44a7e154d6af7ac6d, type: 2}
  - {fileID: 11400000, guid: ffa2ed75c2cf82741981fffbd91a516a, type: 2}
  oxygenTankUpgrades:
  - {fileID: 11400000, guid: db5e52415fe39ea46bdab7c6bfc26dd5, type: 2}
  - {fileID: 11400000, guid: 5459c99de92b6924ba396600c53f6c22, type: 2}
  - {fileID: 11400000, guid: 64e8d99d645010f4ea03c1d63535aec4, type: 2}
  - {fileID: 11400000, guid: 3d491883b34075b4d90e4979043b71b7, type: 2}
  inventoryUpgrades:
  - {fileID: 11400000, guid: 826df0d693e7aef4d9d0f75f6981cfe2, type: 2}
  - {fileID: 11400000, guid: 731713d0baf87b544a7005d8d16ceff6, type: 2}
  - {fileID: 11400000, guid: d1d453b72b83ef64a8a72515997d11dc, type: 2}
  - {fileID: 11400000, guid: fffaa6f5852593249bc31b408f242a85, type: 2}
  currentTurbineUpgrade: {fileID: 11400000, guid: efd68993ca752cc448c0abe795e2a5d7, type: 2}
  currentWeaponUpgrade: {fileID: 11400000, guid: 33ca8885ad775bc439c67f09334d7689, type: 2}
  currentHullUpgrade: {fileID: 11400000, guid: f49283f3e00f0e444a8d79842c5c883c, type: 2}
  currentSelfRepairUpgrade: {fileID: 11400000, guid: 163a25de03b0e084b9c1e679dd79f6c2, type: 2}
  currentOxygenTankUpgrade: {fileID: 11400000, guid: 0eeedcc69e026844da3443fee6681b71, type: 2}
  currentInventoryUpgrade: {fileID: 11400000, guid: 071939daea82a8b4bbb3bb07f43d62fd, type: 2}
