%YAML 1.1
%TAG !u! tag:unity3d.com,2011:
--- !u!1001 &3871769899235515227
PrefabInstance:
  m_ObjectHideFlags: 0
  serializedVersion: 2
  m_Modification:
    m_TransformParent: {fileID: 0}
    m_Modifications:
    - target: {fileID: 208033519113102687, guid: 4aca48287d946ca4a95a42c4db79cffd, type: 3}
      propertyPath: m_LocalRotation.w
      value: 1
      objectReference: {fileID: 0}
    - target: {fileID: 208033519113102687, guid: 4aca48287d946ca4a95a42c4db79cffd, type: 3}
      propertyPath: m_LocalRotation.x
      value: 0
      objectReference: {fileID: 0}
    - target: {fileID: 208033519113102687, guid: 4aca48287d946ca4a95a42c4db79cffd, type: 3}
      propertyPath: m_LocalRotation.z
      value: 0
      objectReference: {fileID: 0}
    - target: {fileID: 208033520448082731, guid: 4aca48287d946ca4a95a42c4db79cffd, type: 3}
      propertyPath: m_RootOrder
      value: 0
      objectReference: {fileID: 0}
    - target: {fileID: 208033520448082731, guid: 4aca48287d946ca4a95a42c4db79cffd, type: 3}
      propertyPath: m_LocalPosition.x
      value: 0
      objectReference: {fileID: 0}
    - target: {fileID: 208033520448082731, guid: 4aca48287d946ca4a95a42c4db79cffd, type: 3}
      propertyPath: m_LocalPosition.y
      value: 0
      objectReference: {fileID: 0}
    - target: {fileID: 208033520448082731, guid: 4aca48287d946ca4a95a42c4db79cffd, type: 3}
      propertyPath: m_LocalPosition.z
      value: 0
      objectReference: {fileID: 0}
    - target: {fileID: 208033520448082731, guid: 4aca48287d946ca4a95a42c4db79cffd, type: 3}
      propertyPath: m_LocalRotation.w
      value: 1
      objectReference: {fileID: 0}
    - target: {fileID: 208033520448082731, guid: 4aca48287d946ca4a95a42c4db79cffd, type: 3}
      propertyPath: m_LocalRotation.x
      value: 0
      objectReference: {fileID: 0}
    - target: {fileID: 208033520448082731, guid: 4aca48287d946ca4a95a42c4db79cffd, type: 3}
      propertyPath: m_LocalRotation.y
      value: 0
      objectReference: {fileID: 0}
    - target: {fileID: 208033520448082731, guid: 4aca48287d946ca4a95a42c4db79cffd, type: 3}
      propertyPath: m_LocalRotation.z
      value: 0
      objectReference: {fileID: 0}
    - target: {fileID: 208033520448082731, guid: 4aca48287d946ca4a95a42c4db79cffd, type: 3}
      propertyPath: m_LocalEulerAnglesHint.x
      value: 0
      objectReference: {fileID: 0}
    - target: {fileID: 208033520448082731, guid: 4aca48287d946ca4a95a42c4db79cffd, type: 3}
      propertyPath: m_LocalEulerAnglesHint.y
      value: 0
      objectReference: {fileID: 0}
    - target: {fileID: 208033520448082731, guid: 4aca48287d946ca4a95a42c4db79cffd, type: 3}
      propertyPath: m_LocalEulerAnglesHint.z
      value: 0
      objectReference: {fileID: 0}
    - target: {fileID: 208033520448082732, guid: 4aca48287d946ca4a95a42c4db79cffd, type: 3}
      propertyPath: m_Name
      value: Clown1 NavAgent [FleeAI] Variant
      objectReference: {fileID: 0}
    - target: {fileID: 208033520448082732, guid: 4aca48287d946ca4a95a42c4db79cffd, type: 3}
      propertyPath: m_Layer
      value: 0
      objectReference: {fileID: 0}
    - target: {fileID: 208033520448082732, guid: 4aca48287d946ca4a95a42c4db79cffd, type: 3}
      propertyPath: m_TagString
      value: Enemy
      objectReference: {fileID: 0}
    - target: {fileID: 3334949341897926700, guid: 4aca48287d946ca4a95a42c4db79cffd, type: 3}
      propertyPath: fishMaterial
      value: 
      objectReference: {fileID: 2747226371917735873, guid: a69eeec6381f95a469891bfabf2b8893, type: 3}
    - target: {fileID: 6191212753959498697, guid: 4aca48287d946ca4a95a42c4db79cffd, type: 3}
      propertyPath: m_IsActive
      value: 0
      objectReference: {fileID: 0}
    - target: {fileID: 6191212753959498699, guid: 4aca48287d946ca4a95a42c4db79cffd, type: 3}
      propertyPath: m_LocalPosition.x
      value: 0
      objectReference: {fileID: 0}
    - target: {fileID: 6191212753959498699, guid: 4aca48287d946ca4a95a42c4db79cffd, type: 3}
      propertyPath: m_LocalPosition.y
      value: 0
      objectReference: {fileID: 0}
    - target: {fileID: 6191212753959498699, guid: 4aca48287d946ca4a95a42c4db79cffd, type: 3}
      propertyPath: m_LocalPosition.z
      value: 0
      objectReference: {fileID: 0}
    - target: {fileID: 7393039971907864272, guid: 4aca48287d946ca4a95a42c4db79cffd, type: 3}
      propertyPath: m_IsActive
      value: 0
      objectReference: {fileID: 0}
    m_RemovedComponents: []
  m_SourcePrefab: {fileID: 100100000, guid: 4aca48287d946ca4a95a42c4db79cffd, type: 3}
