%YAML 1.1
%TAG !u! tag:unity3d.com,2011:
--- !u!1 &4439521978951790205
GameObject:
  m_ObjectHideFlags: 0
  m_CorrespondingSourceObject: {fileID: 0}
  m_PrefabInstance: {fileID: 0}
  m_PrefabAsset: {fileID: 0}
  serializedVersion: 6
  m_Component:
  - component: {fileID: 1299263733739836803}
  - component: {fileID: 1301012997964400797}
  - component: {fileID: 8387469541746373758}
  m_Layer: 0
  m_Name: SpriteVisual
  m_TagString: Untagged
  m_Icon: {fileID: 0}
  m_NavMeshLayer: 0
  m_StaticEditorFlags: 0
  m_IsActive: 0
--- !u!4 &1299263733739836803
Transform:
  m_ObjectHideFlags: 0
  m_CorrespondingSourceObject: {fileID: 0}
  m_PrefabInstance: {fileID: 0}
  m_PrefabAsset: {fileID: 0}
  m_GameObject: {fileID: 4439521978951790205}
  m_LocalRotation: {x: 0, y: 0, z: 0, w: 1}
  m_LocalPosition: {x: 0, y: 0, z: 0}
  m_LocalScale: {x: 6, y: 6, z: 1}
  m_Children: []
  m_Father: {fileID: 9088095078181674460}
  m_RootOrder: 1
  m_LocalEulerAnglesHint: {x: 0, y: 0, z: 0}
--- !u!212 &1301012997964400797
SpriteRenderer:
  m_ObjectHideFlags: 0
  m_CorrespondingSourceObject: {fileID: 0}
  m_PrefabInstance: {fileID: 0}
  m_PrefabAsset: {fileID: 0}
  m_GameObject: {fileID: 4439521978951790205}
  m_Enabled: 1
  m_CastShadows: 0
  m_ReceiveShadows: 0
  m_DynamicOccludee: 1
  m_StaticShadowCaster: 0
  m_MotionVectors: 1
  m_LightProbeUsage: 1
  m_ReflectionProbeUsage: 1
  m_RayTracingMode: 0
  m_RayTraceProcedural: 0
  m_RenderingLayerMask: 1
  m_RendererPriority: 0
  m_Materials:
  - {fileID: 10754, guid: 0000000000000000f000000000000000, type: 0}
  m_StaticBatchInfo:
    firstSubMesh: 0
    subMeshCount: 0
  m_StaticBatchRoot: {fileID: 0}
  m_ProbeAnchor: {fileID: 0}
  m_LightProbeVolumeOverride: {fileID: 0}
  m_ScaleInLightmap: 1
  m_ReceiveGI: 1
  m_PreserveUVs: 0
  m_IgnoreNormalsForChartDetection: 0
  m_ImportantGI: 0
  m_StitchLightmapSeams: 1
  m_SelectedEditorRenderState: 0
  m_MinimumChartSize: 4
  m_AutoUVMaxDistance: 0.5
  m_AutoUVMaxAngle: 89
  m_LightmapParameters: {fileID: 0}
  m_SortingLayerID: -1258538425
  m_SortingLayer: 4
  m_SortingOrder: 0
  m_Sprite: {fileID: 21300000, guid: 19be79c294907be48b4b0d081bc26d51, type: 3}
  m_Color: {r: 1, g: 1, b: 1, a: 1}
  m_FlipX: 0
  m_FlipY: 0
  m_DrawMode: 0
  m_Size: {x: 1, y: 1}
  m_AdaptiveModeThreshold: 0.5
  m_SpriteTileMode: 0
  m_WasSpriteAssigned: 0
  m_MaskInteraction: 0
  m_SpriteSortPoint: 0
--- !u!60 &8387469541746373758
PolygonCollider2D:
  m_ObjectHideFlags: 0
  m_CorrespondingSourceObject: {fileID: 0}
  m_PrefabInstance: {fileID: 0}
  m_PrefabAsset: {fileID: 0}
  m_GameObject: {fileID: 4439521978951790205}
  m_Enabled: 1
  m_Density: 1
  m_Material: {fileID: 0}
  m_IsTrigger: 0
  m_UsedByEffector: 0
  m_UsedByComposite: 0
  m_Offset: {x: 0, y: 0}
  m_SpriteTilingProperty:
    border: {x: 0, y: 0, z: 0, w: 0}
    pivot: {x: 0.5, y: 0.5}
    oldSize: {x: 0.69, y: 0.28}
    newSize: {x: 1, y: 1}
    adaptiveTilingThreshold: 0.5
    drawMode: 0
    adaptiveTiling: 0
  m_AutoTiling: 0
  m_Points:
    m_Paths:
    - - {x: 0.3477338, y: -0.05446049}
      - {x: 0.345, y: 0.02}
      - {x: 0.23931666, y: 0.039064765}
      - {x: 0.10586328, y: 0.04172666}
      - {x: -0.006942369, y: 0.15093523}
      - {x: -0.032266144, y: 0.04705049}
      - {x: -0.19420864, y: 0.00079142675}
      - {x: -0.345, y: 0.099999994}
      - {x: -0.2957914, y: -0.030935239}
      - {x: -0.315, y: -0.14}
      - {x: -0.20650423, y: -0.06300885}
      - {x: 0.22579144, y: -0.10172668}
--- !u!58 &145773171344634456
CircleCollider2D:
  m_ObjectHideFlags: 0
  m_CorrespondingSourceObject: {fileID: 0}
  m_PrefabInstance: {fileID: 0}
  m_PrefabAsset: {fileID: 0}
  m_GameObject: {fileID: 9088095078181674463}
  m_Enabled: 1
  m_Density: 1
  m_Material: {fileID: 0}
  m_IsTrigger: 0
  m_UsedByEffector: 0
  m_UsedByComposite: 0
  m_Offset: {x: 0.3204226, y: -0.16021132}
  serializedVersion: 2
  m_Radius: 0.69021124
--- !u!58 &8418737131178899071
CircleCollider2D:
  m_ObjectHideFlags: 0
  m_CorrespondingSourceObject: {fileID: 0}
  m_PrefabInstance: {fileID: 0}
  m_PrefabAsset: {fileID: 0}
  m_GameObject: {fileID: 9088095078181674463}
  m_Enabled: 1
  m_Density: 1
  m_Material: {fileID: 0}
  m_IsTrigger: 0
  m_UsedByEffector: 0
  m_UsedByComposite: 0
  m_Offset: {x: -0.85, y: -0.2}
  serializedVersion: 2
  m_Radius: 0.46
--- !u!1001 &6207448139962928137
PrefabInstance:
  m_ObjectHideFlags: 0
  serializedVersion: 2
  m_Modification:
    m_TransformParent: {fileID: 0}
    m_Modifications:
    - target: {fileID: 329084657922153638, guid: 46edea6cfa954a14893b6ce0e8aa3c4e, type: 3}
      propertyPath: hurtSprite
      value: 
      objectReference: {fileID: 21300000, guid: 6c666a913b9711a43be0d6dd7fd83fc2, type: 3}
    - target: {fileID: 329084657922153638, guid: 46edea6cfa954a14893b6ce0e8aa3c4e, type: 3}
      propertyPath: fishMaterial
      value: 
      objectReference: {fileID: 2747226371917735873, guid: 256a0f9b4c61d6d4d9674e56e0a5a817, type: 3}
    - target: {fileID: 329084657922153638, guid: 46edea6cfa954a14893b6ce0e8aa3c4e, type: 3}
      propertyPath: startingHealth
      value: 20
      objectReference: {fileID: 0}
    - target: {fileID: 466740736295311597, guid: 46edea6cfa954a14893b6ce0e8aa3c4e, type: 3}
      propertyPath: m_IsActive
      value: 0
      objectReference: {fileID: 0}
    - target: {fileID: 2898681412891322272, guid: 46edea6cfa954a14893b6ce0e8aa3c4e, type: 3}
      propertyPath: isUseWaypoint
      value: 0
      objectReference: {fileID: 0}
    - target: {fileID: 2898681412891322273, guid: 46edea6cfa954a14893b6ce0e8aa3c4e, type: 3}
      propertyPath: m_RootOrder
      value: 0
      objectReference: {fileID: 0}
    - target: {fileID: 2898681412891322273, guid: 46edea6cfa954a14893b6ce0e8aa3c4e, type: 3}
      propertyPath: m_LocalPosition.x
      value: -2.1
      objectReference: {fileID: 0}
    - target: {fileID: 2898681412891322273, guid: 46edea6cfa954a14893b6ce0e8aa3c4e, type: 3}
      propertyPath: m_LocalPosition.y
      value: 0
      objectReference: {fileID: 0}
    - target: {fileID: 2898681412891322273, guid: 46edea6cfa954a14893b6ce0e8aa3c4e, type: 3}
      propertyPath: m_LocalPosition.z
      value: 0
      objectReference: {fileID: 0}
    - target: {fileID: 2898681412891322273, guid: 46edea6cfa954a14893b6ce0e8aa3c4e, type: 3}
      propertyPath: m_LocalRotation.w
      value: 1
      objectReference: {fileID: 0}
    - target: {fileID: 2898681412891322273, guid: 46edea6cfa954a14893b6ce0e8aa3c4e, type: 3}
      propertyPath: m_LocalRotation.x
      value: -0
      objectReference: {fileID: 0}
    - target: {fileID: 2898681412891322273, guid: 46edea6cfa954a14893b6ce0e8aa3c4e, type: 3}
      propertyPath: m_LocalRotation.y
      value: -0
      objectReference: {fileID: 0}
    - target: {fileID: 2898681412891322273, guid: 46edea6cfa954a14893b6ce0e8aa3c4e, type: 3}
      propertyPath: m_LocalRotation.z
      value: -0
      objectReference: {fileID: 0}
    - target: {fileID: 2898681412891322273, guid: 46edea6cfa954a14893b6ce0e8aa3c4e, type: 3}
      propertyPath: m_LocalEulerAnglesHint.x
      value: 0
      objectReference: {fileID: 0}
    - target: {fileID: 2898681412891322273, guid: 46edea6cfa954a14893b6ce0e8aa3c4e, type: 3}
      propertyPath: m_LocalEulerAnglesHint.y
      value: 0
      objectReference: {fileID: 0}
    - target: {fileID: 2898681412891322273, guid: 46edea6cfa954a14893b6ce0e8aa3c4e, type: 3}
      propertyPath: m_LocalEulerAnglesHint.z
      value: 0
      objectReference: {fileID: 0}
    - target: {fileID: 2898681412891322274, guid: 46edea6cfa954a14893b6ce0e8aa3c4e, type: 3}
      propertyPath: m_Speed
      value: 4
      objectReference: {fileID: 0}
    - target: {fileID: 2898681412891322278, guid: 46edea6cfa954a14893b6ce0e8aa3c4e, type: 3}
      propertyPath: m_Name
      value: Shark NavAgent [ChaseAI] Variant Variant 1
      objectReference: {fileID: 0}
    - target: {fileID: 2898681413552886231, guid: 46edea6cfa954a14893b6ce0e8aa3c4e, type: 3}
      propertyPath: m_Size.x
      value: 6.9
      objectReference: {fileID: 0}
    - target: {fileID: 2898681413552886231, guid: 46edea6cfa954a14893b6ce0e8aa3c4e, type: 3}
      propertyPath: m_Size.y
      value: 2.8
      objectReference: {fileID: 0}
    - target: {fileID: 2898681413552886231, guid: 46edea6cfa954a14893b6ce0e8aa3c4e, type: 3}
      propertyPath: m_Sprite
      value: 
      objectReference: {fileID: 21300000, guid: 4f61c92f823711848a4288909705387f, type: 3}
    - target: {fileID: 2898681413552886231, guid: 46edea6cfa954a14893b6ce0e8aa3c4e, type: 3}
      propertyPath: m_Enabled
      value: 1
      objectReference: {fileID: 0}
    - target: {fileID: 2898681413552886231, guid: 46edea6cfa954a14893b6ce0e8aa3c4e, type: 3}
      propertyPath: m_WasSpriteAssigned
      value: 1
      objectReference: {fileID: 0}
    - target: {fileID: 2898681413552886231, guid: 46edea6cfa954a14893b6ce0e8aa3c4e, type: 3}
      propertyPath: m_Materials.Array.data[0]
      value: 
      objectReference: {fileID: 10754, guid: 0000000000000000f000000000000000, type: 0}
    - target: {fileID: 3747534887415998652, guid: 46edea6cfa954a14893b6ce0e8aa3c4e, type: 3}
      propertyPath: attackDamage
      value: 7
      objectReference: {fileID: 0}
    - target: {fileID: 5536234808925904717, guid: 46edea6cfa954a14893b6ce0e8aa3c4e, type: 3}
      propertyPath: m_Mass
      value: 0.001
      objectReference: {fileID: 0}
    - target: {fileID: 8576861784741629963, guid: 46edea6cfa954a14893b6ce0e8aa3c4e, type: 3}
      propertyPath: m_Size.x
      value: 0.72702
      objectReference: {fileID: 0}
    - target: {fileID: 8576861784741629963, guid: 46edea6cfa954a14893b6ce0e8aa3c4e, type: 3}
      propertyPath: m_Size.y
      value: 0.7890749
      objectReference: {fileID: 0}
    - target: {fileID: 8576861784741629963, guid: 46edea6cfa954a14893b6ce0e8aa3c4e, type: 3}
      propertyPath: m_Enabled
      value: 1
      objectReference: {fileID: 0}
    - target: {fileID: 8576861784741629963, guid: 46edea6cfa954a14893b6ce0e8aa3c4e, type: 3}
      propertyPath: m_Offset.x
      value: 1.3964003
      objectReference: {fileID: 0}
    - target: {fileID: 8576861784741629963, guid: 46edea6cfa954a14893b6ce0e8aa3c4e, type: 3}
      propertyPath: m_Offset.y
      value: -0.13091254
      objectReference: {fileID: 0}
    - target: {fileID: 8576861784741629963, guid: 46edea6cfa954a14893b6ce0e8aa3c4e, type: 3}
      propertyPath: m_IsTrigger
      value: 1
      objectReference: {fileID: 0}
    - target: {fileID: 8576861784741629963, guid: 46edea6cfa954a14893b6ce0e8aa3c4e, type: 3}
      propertyPath: m_SpriteTilingProperty.newSize.x
      value: 6.9
      objectReference: {fileID: 0}
    - target: {fileID: 8576861784741629963, guid: 46edea6cfa954a14893b6ce0e8aa3c4e, type: 3}
      propertyPath: m_SpriteTilingProperty.newSize.y
      value: 2.8
      objectReference: {fileID: 0}
    - target: {fileID: 8576861784741629963, guid: 46edea6cfa954a14893b6ce0e8aa3c4e, type: 3}
      propertyPath: m_SpriteTilingProperty.oldSize.x
      value: 3.45
      objectReference: {fileID: 0}
    - target: {fileID: 8576861784741629963, guid: 46edea6cfa954a14893b6ce0e8aa3c4e, type: 3}
      propertyPath: m_SpriteTilingProperty.oldSize.y
      value: 1.4
      objectReference: {fileID: 0}
    m_RemovedComponents: []
  m_SourcePrefab: {fileID: 100100000, guid: 46edea6cfa954a14893b6ce0e8aa3c4e, type: 3}
--- !u!1 &9088095078181674463 stripped
GameObject:
  m_CorrespondingSourceObject: {fileID: 2898681413552886230, guid: 46edea6cfa954a14893b6ce0e8aa3c4e, type: 3}
  m_PrefabInstance: {fileID: 6207448139962928137}
  m_PrefabAsset: {fileID: 0}
--- !u!4 &9088095078181674460 stripped
Transform:
  m_CorrespondingSourceObject: {fileID: 2898681413552886229, guid: 46edea6cfa954a14893b6ce0e8aa3c4e, type: 3}
  m_PrefabInstance: {fileID: 6207448139962928137}
  m_PrefabAsset: {fileID: 0}
