%YAML 1.1
%TAG !u! tag:unity3d.com,2011:
--- !u!114 &11400000
MonoBehaviour:
  m_ObjectHideFlags: 0
  m_CorrespondingSourceObject: {fileID: 0}
  m_PrefabInstance: {fileID: 0}
  m_PrefabAsset: {fileID: 0}
  m_GameObject: {fileID: 0}
  m_Enabled: 1
  m_EditorHideFlags: 0
  m_Script: {fileID: 11500000, guid: 9d1514134bc4fbd41bb739b1b9a49231, type: 3}
  m_Name: OceanRaceRuleTile
  m_EditorClassIdentifier: 
  m_DefaultSprite: {fileID: 7777557952800589573, guid: a2279a12790484a4e81079daadbae581, type: 3}
  m_DefaultGameObject: {fileID: 0}
  m_DefaultColliderType: 1
  m_TilingRules:
  - m_Id: 0
    m_Sprites:
    - {fileID: 7777557952800589573, guid: a2279a12790484a4e81079daadbae581, type: 3}
    m_GameObject: {fileID: 3963462817998629048, guid: ea98066099d1c5944907015b776aa41e, type: 3}
    m_MinAnimationSpeed: 1
    m_MaxAnimationSpeed: 1
    m_PerlinScale: 0.915
    m_Output: 0
    m_ColliderType: 0
    m_RandomTransform: 0
    m_Neighbors: 0100000001000000010000000100000001000000010000000100000001000000
    m_NeighborPositions:
    - {x: -1, y: 1, z: 0}
    - {x: 0, y: 1, z: 0}
    - {x: 1, y: 1, z: 0}
    - {x: -1, y: 0, z: 0}
    - {x: 1, y: 0, z: 0}
    - {x: -1, y: -1, z: 0}
    - {x: 0, y: -1, z: 0}
    - {x: 1, y: -1, z: 0}
    m_RuleTransform: 0
  - m_Id: 13
    m_Sprites:
    - {fileID: 2185595112391361425, guid: a2279a12790484a4e81079daadbae581, type: 3}
    m_GameObject: {fileID: 8391595453629192785, guid: d0d99fe446de00248b4e86724160ae5c, type: 3}
    m_MinAnimationSpeed: 1
    m_MaxAnimationSpeed: 1
    m_PerlinScale: 0.5
    m_Output: 0
    m_ColliderType: 0
    m_RandomTransform: 0
    m_Neighbors: 01000000010000000100000001000000010000000100000001000000
    m_NeighborPositions:
    - {x: 0, y: 1, z: 0}
    - {x: 1, y: 1, z: 0}
    - {x: -1, y: 0, z: 0}
    - {x: 1, y: 0, z: 0}
    - {x: -1, y: -1, z: 0}
    - {x: 0, y: -1, z: 0}
    - {x: 1, y: -1, z: 0}
    m_RuleTransform: 1
  - m_Id: 11
    m_Sprites:
    - {fileID: -3662095370953180417, guid: a2279a12790484a4e81079daadbae581, type: 3}
    m_GameObject: {fileID: 6839659142945262577, guid: af7819e7fe453494184613a4e6e03123, type: 3}
    m_MinAnimationSpeed: 1
    m_MaxAnimationSpeed: 1
    m_PerlinScale: 0.5
    m_Output: 0
    m_ColliderType: 0
    m_RandomTransform: 0
    m_Neighbors: 010000000100000001000000010000000100000001000000
    m_NeighborPositions:
    - {x: 0, y: 1, z: 0}
    - {x: -1, y: 0, z: 0}
    - {x: 1, y: 0, z: 0}
    - {x: 0, y: -1, z: 0}
    - {x: -1, y: -1, z: 0}
    - {x: 1, y: -1, z: 0}
    m_RuleTransform: 1
  - m_Id: 12
    m_Sprites:
    - {fileID: 2185595112391361425, guid: a2279a12790484a4e81079daadbae581, type: 3}
    m_GameObject: {fileID: 959661254700687355, guid: 6861aa416bee9df4d9f9833427db4ecc, type: 3}
    m_MinAnimationSpeed: 1
    m_MaxAnimationSpeed: 1
    m_PerlinScale: 0.5
    m_Output: 0
    m_ColliderType: 0
    m_RandomTransform: 0
    m_Neighbors: 010000000100000001000000010000000100000001000000
    m_NeighborPositions:
    - {x: 0, y: 1, z: 0}
    - {x: 1, y: 1, z: 0}
    - {x: -1, y: 0, z: 0}
    - {x: 1, y: 0, z: 0}
    - {x: -1, y: -1, z: 0}
    - {x: 0, y: -1, z: 0}
    m_RuleTransform: 1
  - m_Id: 10
    m_Sprites:
    - {fileID: -3662095370953180417, guid: a2279a12790484a4e81079daadbae581, type: 3}
    m_GameObject: {fileID: 6299530581143697748, guid: 890655ec00c128b439bc36cc4c0e2c80, type: 3}
    m_MinAnimationSpeed: 1
    m_MaxAnimationSpeed: 1
    m_PerlinScale: 0.5
    m_Output: 0
    m_ColliderType: 0
    m_RandomTransform: 0
    m_Neighbors: 0100000001000000010000000100000001000000
    m_NeighborPositions:
    - {x: 0, y: 1, z: 0}
    - {x: -1, y: 0, z: 0}
    - {x: 1, y: 0, z: 0}
    - {x: 0, y: -1, z: 0}
    - {x: -1, y: -1, z: 0}
    m_RuleTransform: 1
  - m_Id: 9
    m_Sprites:
    - {fileID: 7777557952800589573, guid: a2279a12790484a4e81079daadbae581, type: 3}
    m_GameObject: {fileID: 7347051190379434280, guid: d91034f5bb8d47a4a86d2faaf2e764e7, type: 3}
    m_MinAnimationSpeed: 1
    m_MaxAnimationSpeed: 1
    m_PerlinScale: 0.5
    m_Output: 0
    m_ColliderType: 0
    m_RandomTransform: 0
    m_Neighbors: 01000000010000000100000001000000
    m_NeighborPositions:
    - {x: 0, y: 1, z: 0}
    - {x: -1, y: 0, z: 0}
    - {x: 1, y: 0, z: 0}
    - {x: 0, y: -1, z: 0}
    m_RuleTransform: 0
  - m_Id: 8
    m_Sprites:
    - {fileID: -5162734536991863232, guid: a2279a12790484a4e81079daadbae581, type: 3}
    m_GameObject: {fileID: 1951410651379785402, guid: d0639eca2d711d043be15e61444bef0d, type: 3}
    m_MinAnimationSpeed: 1
    m_MaxAnimationSpeed: 1
    m_PerlinScale: 0.5
    m_Output: 0
    m_ColliderType: 0
    m_RandomTransform: 0
    m_Neighbors: 0100000001000000010000000100000001000000
    m_NeighborPositions:
    - {x: 1, y: 0, z: 0}
    - {x: -1, y: 0, z: 0}
    - {x: 1, y: -1, z: 0}
    - {x: 0, y: -1, z: 0}
    - {x: -1, y: -1, z: 0}
    m_RuleTransform: 1
  - m_Id: 7
    m_Sprites:
    - {fileID: -5162734536991863232, guid: a2279a12790484a4e81079daadbae581, type: 3}
    m_GameObject: {fileID: 977459189030018151, guid: e8fcfe0caa1de0546b7ebab451c6d0da, type: 3}
    m_MinAnimationSpeed: 1
    m_MaxAnimationSpeed: 1
    m_PerlinScale: 0.5
    m_Output: 0
    m_ColliderType: 0
    m_RandomTransform: 0
    m_Neighbors: 01000000010000000100000001000000
    m_NeighborPositions:
    - {x: 1, y: 0, z: 0}
    - {x: -1, y: 0, z: 0}
    - {x: 0, y: -1, z: 0}
    - {x: -1, y: -1, z: 0}
    m_RuleTransform: 1
  - m_Id: 6
    m_Sprites:
    - {fileID: 6167072249572456260, guid: a2279a12790484a4e81079daadbae581, type: 3}
    m_GameObject: {fileID: 5319649910595077123, guid: 83a37688d3a2b6b428ba4016bf4ecc60, type: 3}
    m_MinAnimationSpeed: 1
    m_MaxAnimationSpeed: 1
    m_PerlinScale: 0.5
    m_Output: 0
    m_ColliderType: 0
    m_RandomTransform: 0
    m_Neighbors: 01000000010000000100000001000000
    m_NeighborPositions:
    - {x: 1, y: 0, z: 0}
    - {x: -1, y: 0, z: 0}
    - {x: 1, y: -1, z: 0}
    - {x: 0, y: -1, z: 0}
    m_RuleTransform: 1
  - m_Id: 3
    m_Sprites:
    - {fileID: 6167072249572456260, guid: a2279a12790484a4e81079daadbae581, type: 3}
    m_GameObject: {fileID: 3130831505807561862, guid: 5728ee09e777ab14482cc066501008e4, type: 3}
    m_MinAnimationSpeed: 1
    m_MaxAnimationSpeed: 1
    m_PerlinScale: 0.5
    m_Output: 0
    m_ColliderType: 0
    m_RandomTransform: 0
    m_Neighbors: 010000000100000001000000
    m_NeighborPositions:
    - {x: -1, y: 0, z: 0}
    - {x: 1, y: 0, z: 0}
    - {x: 0, y: -1, z: 0}
    m_RuleTransform: 1
  - m_Id: 5
    m_Sprites:
    - {fileID: -2670344782756201626, guid: a2279a12790484a4e81079daadbae581, type: 3}
    m_GameObject: {fileID: 8610895693979942589, guid: d120f29bdcc14214c82dec3d525ed2be, type: 3}
    m_MinAnimationSpeed: 1
    m_MaxAnimationSpeed: 1
    m_PerlinScale: 0.5
    m_Output: 0
    m_ColliderType: 0
    m_RandomTransform: 0
    m_Neighbors: 0100000001000000
    m_NeighborPositions:
    - {x: 1, y: 0, z: 0}
    - {x: -1, y: 0, z: 0}
    m_RuleTransform: 1
  - m_Id: 4
    m_Sprites:
    - {fileID: 1148002418424063401, guid: a2279a12790484a4e81079daadbae581, type: 3}
    m_GameObject: {fileID: 2854911768837106368, guid: 402d20dc95a9bd641b3aa4e38ef0524c, type: 3}
    m_MinAnimationSpeed: 1
    m_MaxAnimationSpeed: 1
    m_PerlinScale: 0.5
    m_Output: 0
    m_ColliderType: 0
    m_RandomTransform: 0
    m_Neighbors: 010000000100000001000000
    m_NeighborPositions:
    - {x: 1, y: 0, z: 0}
    - {x: 0, y: -1, z: 0}
    - {x: 1, y: -1, z: 0}
    m_RuleTransform: 1
  - m_Id: 2
    m_Sprites:
    - {fileID: -3131630191868028924, guid: a2279a12790484a4e81079daadbae581, type: 3}
    m_GameObject: {fileID: 2324007952844062703, guid: 7b3eedad9f2366248b62010e986f7476, type: 3}
    m_MinAnimationSpeed: 1
    m_MaxAnimationSpeed: 1
    m_PerlinScale: 0.5
    m_Output: 0
    m_ColliderType: 0
    m_RandomTransform: 0
    m_Neighbors: 0100000001000000
    m_NeighborPositions:
    - {x: 1, y: 0, z: 0}
    - {x: 0, y: -1, z: 0}
    m_RuleTransform: 1
  - m_Id: 1
    m_Sprites:
    - {fileID: -2670344782756201626, guid: a2279a12790484a4e81079daadbae581, type: 3}
    m_GameObject: {fileID: 3724732162455388151, guid: 13d6e6e5a6358644bbb6d7dd20f3c394, type: 3}
    m_MinAnimationSpeed: 1
    m_MaxAnimationSpeed: 1
    m_PerlinScale: 0.5
    m_Output: 0
    m_ColliderType: 0
    m_RandomTransform: 0
    m_Neighbors: 01000000
    m_NeighborPositions:
    - {x: -1, y: 0, z: 0}
    m_RuleTransform: 1
