%YAML 1.1
%TAG !u! tag:unity3d.com,2011:
--- !u!114 &11400000
MonoBehaviour:
  m_ObjectHideFlags: 0
  m_CorrespondingSourceObject: {fileID: 0}
  m_PrefabInstance: {fileID: 0}
  m_PrefabAsset: {fileID: 0}
  m_GameObject: {fileID: 0}
  m_Enabled: 1
  m_EditorHideFlags: 0
  m_Script: {fileID: 11500000, guid: 6d003402572f3b84bad1a0fa1854102d, type: 3}
  m_Name: DPadAxisVertical
  m_EditorClassIdentifier: 
  _aName: DPadAxisVertical
  query: 
  aSprite: {fileID: 0}
  isExecuted: 1
  _isEnabled: 1
  _isDebugLog: 1
  _id: 26342
  _TimeStamp: 0
  _ElapsedTime: 0
  instigatorObj: {fileID: 0}
  UsedToExecChainCommands: []
  isSoInstance: 0
  ExecPressEvent: {fileID: 11400000, guid: 9c24cde61acfcca4b811a1482ca3f60d, type: 2}
  ExecDownEvent: {fileID: 11400000, guid: 8cc4120bf7899bf4f86474409e613267, type: 2}
  ExecDownChargingEvent: {fileID: 11400000, guid: ff2f55c6dbe61c145bbbfaf53ffee1f1, type: 2}
  ExecReleaseEvent: {fileID: 11400000, guid: f256352400cfd1040ac642d00cc01c8b, type: 2}
  ExecdEvent: {fileID: 11400000, guid: 988db3ca923fed241a3e9f0b0f9e8760, type: 2}
  cooldownTime: 0
  curCoolDownTimeElapsed: 0
  castState: 0
  isCastingNow: 0
  m_PlayerNumber: 1
  curExecStateText: 
  m_Execd: 0
  m_ExecButtonPressedThisFrame: 0
  m_ExecButtonReleasedThisFrame: 0
  m_ExecButtonDown: 0
  isExecChargedStyle: 0
  isFullChargeAutoRelease: 0
  m_Axis: 0
  m_AimSlider: {fileID: 0}
  m_MinLaunchForce: 15
  m_MaxLaunchForce: 30
  m_MaxChargeTime: 0.75
  m_Action: {fileID: -5578285862435738330, guid: 0bbcb65428bbf6e4192c89e4bc979f2d, type: 3}
