%YAML 1.1
%TAG !u! tag:unity3d.com,2011:
--- !u!114 &11400000
MonoBehaviour:
  m_ObjectHideFlags: 0
  m_CorrespondingSourceObject: {fileID: 0}
  m_PrefabInstance: {fileID: 0}
  m_PrefabAsset: {fileID: 0}
  m_GameObject: {fileID: 0}
  m_Enabled: 1
  m_EditorHideFlags: 0
  m_Script: {fileID: 11500000, guid: c7583f436d3714b4683ab2db45fd1cd0, type: 3}
  m_Name: High Tier Hull Stage 2
  m_EditorClassIdentifier: 
  fishMaterialTypeRequirement:
  - {fileID: 11400000, guid: 09ab3026e2a9d8e47bd2eee55b906c5d, type: 2}
  rawMaterialTypeRequirement:
  - {fileID: 11400000, guid: 121a31a9ec295ea449626b24c0e8fa74, type: 2}
  - {fileID: 11400000, guid: bb79fbf076cd003459c2f30119daa82f, type: 2}
  fishMaterialAmountRequirement: 05000000
  rawMaterialAmountRequirement: 050000000a000000
  isUniqueFeatureUsed: 1
  isLowTierUpgrade: 0
  ID: Hull 4
  health: 250
  pressureStrength: 2
