%YAML 1.1
%TAG !u! tag:unity3d.com,2011:
--- !u!114 &11400000
MonoBehaviour:
  m_ObjectHideFlags: 0
  m_CorrespondingSourceObject: {fileID: 0}
  m_PrefabInstance: {fileID: 0}
  m_PrefabAsset: {fileID: 0}
  m_GameObject: {fileID: 0}
  m_Enabled: 1
  m_EditorHideFlags: 0
  m_Script: {fileID: 11500000, guid: 43f28e32a3b1b32439603530e1848409, type: 3}
  m_Name: High Tech Turbine Stage 2
  m_EditorClassIdentifier: 
  fishMaterialTypeRequirement:
  - {fileID: 11400000, guid: 24e77a132b050fc4a8f91b25a8a97ef2, type: 2}
  - {fileID: 11400000, guid: 1db4d76486ce7ca44acd62f4d495c04c, type: 2}
  rawMaterialTypeRequirement:
  - {fileID: 11400000, guid: bb79fbf076cd003459c2f30119daa82f, type: 2}
  fishMaterialAmountRequirement: 0500000005000000
  rawMaterialAmountRequirement: 0a000000
  isUniqueFeatureUsed: 1
  isLowTierUpgrade: 0
  ID: Turbine 4
  turbineSpeed: 0.6
