%YAML 1.1
%TAG !u! tag:unity3d.com,2011:
--- !u!114 &11400000
MonoBehaviour:
  m_ObjectHideFlags: 0
  m_CorrespondingSourceObject: {fileID: 0}
  m_PrefabInstance: {fileID: 0}
  m_PrefabAsset: {fileID: 0}
  m_GameObject: {fileID: 0}
  m_Enabled: 1
  m_EditorHideFlags: 0
  m_Script: {fileID: 11500000, guid: 066a20c7384edef4f80cbdee15b6af39, type: 3}
  m_Name: Low Tier Inventory Stage 2
  m_EditorClassIdentifier: 
  fishMaterialTypeRequirement:
  - {fileID: 11400000, guid: 09ab3026e2a9d8e47bd2eee55b906c5d, type: 2}
  - {fileID: 11400000, guid: d4f4ad38913f5134a950387ecd84a8fc, type: 2}
  rawMaterialTypeRequirement:
  - {fileID: 11400000, guid: 121a31a9ec295ea449626b24c0e8fa74, type: 2}
  fishMaterialAmountRequirement: 0500000005000000
  rawMaterialAmountRequirement: 0a000000
  isUniqueFeatureUsed: 1
  isLowTierUpgrade: 1
  ID: Inventory 2
  numberOfSlots: 10
  maxStacking: 10
