%YAML 1.1
%TAG !u! tag:unity3d.com,2011:
--- !u!114 &11400000
MonoBehaviour:
  m_ObjectHideFlags: 0
  m_CorrespondingSourceObject: {fileID: 0}
  m_PrefabInstance: {fileID: 0}
  m_PrefabAsset: {fileID: 0}
  m_GameObject: {fileID: 0}
  m_Enabled: 1
  m_EditorHideFlags: 0
  m_Script: {fileID: 11500000, guid: 1d1a64ffe28a84d46b0acb0d0baf61ba, type: 3}
  m_Name: Low Tier Self Repair Stage 1
  m_EditorClassIdentifier: 
  fishMaterialTypeRequirement:
  - {fileID: 11400000, guid: 24e77a132b050fc4a8f91b25a8a97ef2, type: 2}
  rawMaterialTypeRequirement:
  - {fileID: 11400000, guid: fd4c77185b567a2429a650929783920e, type: 2}
  fishMaterialAmountRequirement: 06000000
  rawMaterialAmountRequirement: 06000000
  isUniqueFeatureUsed: 0
  isLowTierUpgrade: 0
  ID: Self Repair 1
  healthRegenerationAmount: 5
  canRegenerate: 0
  healthRegenerationRate: 2
  availableHealthKits: 3
  healthReplenishAmount: 30
