# Blender v3.0.0 Alpha OBJ File: ''
# www.blender.org
mtllib untitled.mtl
o Stage1_3DMesh_Scene
v -45.580532 6.759516 0.000001
v -44.735428 7.669624 0.000001
v -46.490639 7.279577 0.000001
v -43.500282 7.669624 0.000001
v -49.415989 8.644743 0.000001
v -42.590172 7.734633 0.000001
v -47.075706 7.149562 0.000001
v -38.949734 7.734633 0.000001
v -47.595776 6.174446 0.000001
v -47.010696 6.499484 0.000001
v -48.310860 5.069312 0.000001
v -48.700909 4.679265 0.000001
v -37.064507 7.734633 0.000001
v -37.129517 7.539610 0.000001
v -37.909607 7.604617 0.000001
v -34.009140 7.669624 0.000001
v -30.823757 7.669624 0.000001
v -29.913647 7.799640 0.000001
v -48.765911 -1.236446 -0.000000
v -49.415989 -14.758071 -0.000002
v -48.570892 -0.391344 -0.000000
v -48.505882 2.729031 0.000000
v -48.440872 -5.917009 -0.000001
v -48.180847 -1.886524 -0.000000
v -48.180847 -2.666618 -0.000000
v -47.985821 -3.966774 -0.000001
v -47.660782 -8.062267 -0.000001
v -47.595776 -8.517322 -0.000001
v -46.750671 -9.167400 -0.000001
v -46.750671 -9.687461 -0.000002
v -45.255493 -11.312658 -0.000002
v -44.280369 -11.962735 -0.000002
v -43.370262 -12.222767 -0.000002
v -42.980213 -12.612812 -0.000002
v -41.224998 -12.417791 -0.000002
v -39.859844 -12.742830 -0.000002
v -38.429672 -12.482798 -0.000002
v -37.714584 -12.547805 -0.000002
v -36.089397 -13.132877 -0.000002
v -34.919250 -13.132877 -0.000002
v -30.888763 -13.002861 -0.000002
v -29.718622 -12.937853 -0.000002
v -26.663256 -12.872847 -0.000002
v -25.688139 -13.392907 -0.000002
v -25.428108 -13.782955 -0.000002
v -24.517998 -13.782955 -0.000002
v -31.408825 -12.742830 -0.000002
v -23.542881 -13.912970 -0.000002
v -23.477875 -14.758071 -0.000002
v -23.217842 -14.628057 -0.000002
v -33.099026 -12.872847 -0.000002
v -34.204163 -12.872847 -0.000002
v -32.318935 -12.612812 -0.000002
v -25.428108 7.604617 0.000001
v -23.802912 7.604617 0.000001
v -27.248327 7.929657 0.000001
v -21.527639 7.799640 0.000001
v -28.093431 7.604617 0.000001
v -29.523598 7.409595 0.000001
v -18.407263 7.734633 0.000001
v -15.091864 7.799640 0.000001
v -6.965887 8.189688 0.000001
v -13.271646 7.734633 0.000001
v -0.790146 8.644743 0.000001
v -7.615965 6.759516 0.000001
v -2.740380 7.929657 0.000001
v -6.510832 7.929657 0.000001
v -1.310207 7.669624 0.000001
v -2.090302 7.409595 0.000001
v -0.790146 8.579736 0.000001
v -12.166513 7.019547 0.000001
v -12.751583 6.954538 0.000001
v -10.671331 5.524367 0.000001
v -11.061380 5.069312 0.000001
v -11.386419 5.199328 0.000001
v -11.906482 5.654382 0.000001
v -9.111146 3.834163 0.000001
v -9.436184 3.444117 0.000001
v -9.631208 3.509125 0.000001
v -9.826231 3.704149 0.000001
v -8.136028 1.558890 0.000000
v -8.526075 2.013944 0.000000
v -7.550958 5.784399 0.000001
v -7.485950 1.818921 0.000000
v -7.355934 2.924054 0.000000
v -21.982693 3.964179 0.000001
v -21.982693 3.379109 0.000001
v -21.787670 4.159203 0.000001
v -21.787670 2.924054 0.000000
v -20.292490 2.859046 0.000000
v -19.317373 4.159203 0.000001
v -18.732304 2.859046 0.000000
v -18.602287 3.964179 0.000001
v -18.602287 3.119078 0.000001
v -46.035583 3.119078 0.000001
v -46.035583 2.664023 0.000000
v -45.905571 3.639140 0.000001
v -45.840561 2.338984 0.000000
v -45.710545 3.834163 0.000001
v -44.735428 3.834163 0.000001
v -43.630291 3.704149 0.000001
v -42.980213 3.249094 0.000001
v -42.980213 2.338984 0.000000
v -33.034023 -0.001297 -0.000000
v -32.839001 -0.066305 -0.000000
v -33.034023 0.778796 0.000000
v -32.773991 1.363867 0.000000
v -32.253929 1.428874 0.000000
v -30.628735 1.428874 0.000000
v -30.433710 -0.391344 -0.000000
v -29.718622 1.298859 0.000000
v -29.718622 -0.391344 -0.000000
v -28.418468 1.428874 0.000000
v -28.288452 -0.066305 -0.000000
v -27.443350 1.428874 0.000000
v -27.053303 -0.131313 -0.000000
v -26.858280 0.713789 0.000000
v -26.858280 0.193726 0.000000
v -0.530113 -0.326337 -0.000000
v -0.790146 0.713789 0.000000
v -0.855154 -0.976415 -0.000000
v -1.180193 0.908812 0.000000
v -1.245199 -4.811876 -0.000001
v -0.725136 -2.861641 -0.000000
v -0.465105 -4.161798 -0.000001
v -1.635246 0.908812 0.000000
v -2.740380 -4.876884 -0.000001
v -2.025293 -0.846399 -0.000000
v -2.025293 0.063710 0.000000
v -2.350332 -1.496477 -0.000000
v -2.610364 -2.991657 -0.000000
v -3.455465 -3.381704 -0.000001
v -5.145668 -4.746868 -0.000001
v -4.950645 -3.251688 -0.000001
v -6.835872 -3.251688 -0.000001
v -6.510832 -4.811876 -0.000001
v -5.145668 -4.876884 -0.000001
v -7.030896 -6.307055 -0.000001
v -7.615965 -3.121673 -0.000001
v -7.290927 -7.217165 -0.000001
v -8.136028 -8.842361 -0.000001
v -7.941004 -3.446711 -0.000001
v -6.965887 -9.037384 -0.000001
v -6.250802 -7.347181 -0.000001
v -5.600723 -9.037384 -0.000001
v -4.950645 -7.412189 -0.000001
v -4.040535 -7.217165 -0.000001
v -3.130426 -8.907369 -0.000001
v -2.935403 -8.842361 -0.000001
v -2.415341 -7.412189 -0.000001
v -1.895277 -7.477197 -0.000001
v 0.314987 -7.412189 -0.000001
v 0.770042 -8.842361 -0.000001
v 1.355114 -9.362423 -0.000002
v -8.916122 -6.372064 -0.000001
v -8.591083 -8.257290 -0.000001
v -10.411303 -3.251688 -0.000001
v -9.306169 -6.762110 -0.000001
v -9.891239 -6.827118 -0.000001
v -10.281286 -6.502079 -0.000001
v -10.476311 -5.786994 -0.000001
v -11.321411 -3.641735 -0.000001
v -11.126388 -4.876884 -0.000001
v -15.091864 -4.811876 -0.000001
v -11.906482 -3.576727 -0.000001
v -13.271646 -3.316696 -0.000001
v -15.806951 -3.446711 -0.000001
v -15.481913 -4.941892 -0.000001
v -16.392021 -4.876884 -0.000001
v -16.847076 -3.381704 -0.000001
v -17.302132 -6.762110 -0.000001
v -16.392021 -6.177040 -0.000001
v -17.432146 -3.576727 -0.000001
v -17.822193 -6.632095 -0.000001
v -17.822193 -3.966774 -0.000001
v -18.407263 -6.112032 -0.000001
v -18.407263 -4.876884 -0.000001
v -22.632772 -6.502079 -0.000001
v -21.397621 -4.876884 -0.000001
v -21.657654 -4.681860 -0.000001
v -23.217842 -4.291813 -0.000001
v -23.542881 -6.372064 -0.000001
v -24.517998 -4.746868 -0.000001
v -25.753147 -6.307055 -0.000001
v -26.013178 -4.616853 -0.000001
v -26.338217 -6.957134 -0.000001
v -26.208202 -4.941892 -0.000001
v -28.483471 -4.811876 -0.000001
v -27.183319 -6.957134 -0.000001
v -28.288452 -7.737227 -0.000001
v -29.328573 -7.932251 -0.000001
v -29.393583 -4.941892 -0.000001
v -30.563725 -7.477197 -0.000001
v -31.733870 -4.291813 -0.000001
v -31.343815 -7.412189 -0.000001
v -32.513962 -8.062267 -0.000001
v -32.513962 -5.136915 -0.000001
v -33.424068 -8.127275 -0.000001
v -35.504318 -5.136915 -0.000001
v -34.204163 -7.542204 -0.000001
v -34.594212 -7.867244 -0.000001
v -35.374306 -8.257290 -0.000001
v -36.284416 -8.192283 -0.000001
v -36.284416 -4.746868 -0.000001
v -39.014740 -7.282173 -0.000001
v -38.689705 -4.551845 -0.000001
v -39.924850 -4.746868 -0.000001
v -39.794838 -7.542204 -0.000001
v -39.989861 -7.477197 -0.000001
v -40.704948 -4.811876 -0.000001
v -40.379910 -7.217165 -0.000001
v -41.160000 -5.917009 -0.000001
v -41.160000 -5.136915 -0.000001
v 1.420122 -10.012501 -0.000002
v 1.680153 -10.337539 -0.000002
v 2.070198 -10.337539 -0.000002
v 2.200214 -10.207525 -0.000002
v 2.395237 -9.687461 -0.000002
v 2.460245 -8.907369 -0.000001
v 2.850294 -7.477197 -0.000001
v 3.240339 -6.957134 -0.000001
v 3.890417 -7.022142 -0.000001
v 3.955425 -8.582329 -0.000001
v 4.280466 -7.607211 -0.000001
v 4.280466 -8.452314 -0.000001
v 8.570980 -11.247650 -0.000002
v 8.570980 -11.572689 -0.000002
v 8.635990 -10.792595 -0.000002
v 8.635990 -11.702703 -0.000002
v 8.766006 -10.532564 -0.000002
v 10.716239 -10.532564 -0.000002
v 11.366316 -11.702703 -0.000002
v 11.626347 -10.727587 -0.000002
v 11.626347 -11.312658 -0.000002
v 2.720277 1.623898 0.000000
v 2.915300 1.298859 0.000000
v 2.720277 1.883929 0.000000
v 3.110325 2.599015 0.000000
v 5.905661 1.103836 0.000000
v 6.035677 2.403992 0.000000
v 6.230700 1.363867 0.000000
v 6.490730 2.859046 0.000000
v 7.205816 1.103836 0.000000
v 7.985910 2.468999 0.000000
v 9.286068 3.249094 0.000001
v 10.911261 4.549250 0.000001
v 9.806129 3.964179 0.000001
v 11.106285 1.103836 0.000000
v 11.171295 4.484242 0.000001
v 11.691356 4.159203 0.000001
v 12.146412 0.908812 0.000000
v 12.211418 5.459358 0.000001
v 12.341434 8.644743 0.000001
v 12.471449 -0.521360 -0.000000
v 12.991512 8.644743 0.000001
v 12.406443 -9.362423 -0.000002
v 12.211418 -7.672220 -0.000001
v 11.561340 -2.211563 -0.000000
v 12.016397 -6.502079 -0.000001
v 11.496331 -5.266931 -0.000001
v 11.431324 -4.616853 -0.000001
v 9.741121 -2.211563 -0.000000
v 10.391201 -4.941892 -0.000001
v 10.131170 -3.966774 -0.000001
v 10.196177 -4.551845 -0.000001
v 8.961027 -3.381704 -0.000001
v 7.010793 -2.016540 -0.000000
v 7.270825 -3.511720 -0.000001
v 6.035677 -3.641735 -0.000001
v 4.930544 -1.626493 -0.000000
v 4.215456 -3.446711 -0.000001
v 3.955425 -2.406587 -0.000000
v 3.565378 -3.121673 -0.000001
v 3.565378 -2.796633 -0.000000
v -18.212240 -14.368026 -0.000002
v -18.212240 -14.758071 -0.000002
v -17.757185 -13.847963 -0.000002
v -15.806951 -12.742830 -0.000002
v -13.336654 -12.612812 -0.000002
v -12.296528 -12.677822 -0.000002
v -10.476311 -12.222767 -0.000002
v -8.786107 -12.287774 -0.000002
v -11.386419 -12.287774 -0.000002
v -7.875997 -12.287774 -0.000002
v -7.420942 -12.352783 -0.000002
v -5.730738 -13.652939 -0.000002
v -4.560598 -14.173001 -0.000002
v -1.245199 -14.173001 -0.000002
v -2.415341 -13.977977 -0.000002
v -3.845512 -13.847963 -0.000002
v 2.915300 -14.238008 -0.000002
v 12.991512 -14.758071 -0.000002
v 8.310949 -14.042986 -0.000002
v 6.880777 -13.847963 -0.000002
v 4.150447 -14.107994 -0.000002
v 2.980309 -14.173001 -0.000002
v 5.515613 -13.912970 -0.000002
v 10.586225 -13.782955 -0.000002
v 9.286068 -13.912970 -0.000002
v 12.146412 -12.287774 -0.000002
v 10.976268 -12.937853 -0.000002
v 10.651232 -13.262892 -0.000002
v 12.341434 -11.507679 -0.000002
v -45.580532 6.759533 -103.966553
v -44.735428 7.669641 -103.966553
v -46.490639 7.279594 -103.966553
v -43.500282 7.669641 -103.966553
v -49.415989 8.644760 -103.966553
v -42.590172 7.734650 -103.966553
v -47.075706 7.149580 -103.966553
v -38.949734 7.734650 -103.966553
v -47.595776 6.174463 -103.966553
v -47.010696 6.499501 -103.966553
v -48.310860 5.069329 -103.966553
v -48.700909 4.679282 -103.966553
v -37.064507 7.734650 -103.966553
v -37.129517 7.539627 -103.966553
v -37.909607 7.604634 -103.966553
v -34.009140 7.669641 -103.966553
v -30.823757 7.669641 -103.966553
v -29.913647 7.799657 -103.966553
v -48.765911 -1.236429 -103.966553
v -49.415989 -14.758054 -103.966553
v -48.570892 -0.391327 -103.966553
v -48.505882 2.729048 -103.966553
v -48.440872 -5.916992 -103.966553
v -48.180847 -1.886507 -103.966553
v -48.180847 -2.666601 -103.966553
v -47.985821 -3.966758 -103.966553
v -47.660782 -8.062250 -103.966553
v -47.595776 -8.517304 -103.966553
v -46.750671 -9.167383 -103.966553
v -46.750671 -9.687444 -103.966553
v -45.255493 -11.312641 -103.966553
v -44.280369 -11.962718 -103.966553
v -43.370262 -12.222750 -103.966553
v -42.980213 -12.612795 -103.966553
v -41.224998 -12.417774 -103.966553
v -39.859844 -12.742813 -103.966553
v -38.429672 -12.482780 -103.966553
v -37.714584 -12.547788 -103.966553
v -36.089397 -13.132860 -103.966553
v -34.919250 -13.132860 -103.966553
v -30.888763 -13.002844 -103.966553
v -29.718622 -12.937836 -103.966553
v -26.663256 -12.872829 -103.966553
v -25.688139 -13.392890 -103.966553
v -25.428108 -13.782938 -103.966553
v -24.517998 -13.782938 -103.966553
v -31.408825 -12.742813 -103.966553
v -23.542881 -13.912952 -103.966553
v -23.477875 -14.758054 -103.966553
v -23.217842 -14.628040 -103.966553
v -33.099026 -12.872829 -103.966553
v -34.204163 -12.872829 -103.966553
v -32.318935 -12.612795 -103.966553
v -25.428108 7.604634 -103.966553
v -23.802912 7.604634 -103.966553
v -27.248327 7.929674 -103.966553
v -21.527639 7.799657 -103.966553
v -28.093431 7.604634 -103.966553
v -29.523598 7.409612 -103.966553
v -18.407263 7.734650 -103.966553
v -15.091864 7.799657 -103.966553
v -6.965887 8.189705 -103.966553
v -13.271646 7.734650 -103.966553
v -0.790146 8.644760 -103.966553
v -7.615965 6.759533 -103.966553
v -2.740380 7.929674 -103.966553
v -6.510832 7.929674 -103.966553
v -1.310207 7.669641 -103.966553
v -2.090302 7.409612 -103.966553
v -0.790146 8.579753 -103.966553
v -12.166513 7.019565 -103.966553
v -12.751583 6.954556 -103.966553
v -10.671331 5.524384 -103.966553
v -11.061380 5.069329 -103.966553
v -11.386419 5.199345 -103.966553
v -11.906482 5.654399 -103.966553
v -9.111146 3.834180 -103.966553
v -9.436184 3.444134 -103.966553
v -9.631208 3.509142 -103.966553
v -9.826231 3.704165 -103.966553
v -8.136028 1.558907 -103.966553
v -8.526075 2.013961 -103.966553
v -7.550958 5.784416 -103.966553
v -7.485950 1.818938 -103.966553
v -7.355934 2.924071 -103.966553
v -21.982693 3.964196 -103.966553
v -21.982693 3.379126 -103.966553
v -21.787670 4.159220 -103.966553
v -21.787670 2.924071 -103.966553
v -20.292490 2.859063 -103.966553
v -19.317373 4.159220 -103.966553
v -18.732304 2.859063 -103.966553
v -18.602287 3.964196 -103.966553
v -18.602287 3.119095 -103.966553
v -46.035583 3.119095 -103.966553
v -46.035583 2.664040 -103.966553
v -45.905571 3.639157 -103.966553
v -45.840561 2.339001 -103.966553
v -45.710545 3.834180 -103.966553
v -44.735428 3.834180 -103.966553
v -43.630291 3.704165 -103.966553
v -42.980213 3.249110 -103.966553
v -42.980213 2.339001 -103.966553
v -33.034023 -0.001280 -103.966553
v -32.839001 -0.066288 -103.966553
v -33.034023 0.778813 -103.966553
v -32.773991 1.363884 -103.966553
v -32.253929 1.428891 -103.966553
v -30.628735 1.428891 -103.966553
v -30.433710 -0.391327 -103.966553
v -29.718622 1.298876 -103.966553
v -29.718622 -0.391327 -103.966553
v -28.418468 1.428891 -103.966553
v -28.288452 -0.066288 -103.966553
v -27.443350 1.428891 -103.966553
v -27.053303 -0.131296 -103.966553
v -26.858280 0.713805 -103.966553
v -26.858280 0.193743 -103.966553
v -0.530113 -0.326320 -103.966553
v -0.790146 0.713805 -103.966553
v -0.855154 -0.976398 -103.966553
v -1.180193 0.908829 -103.966553
v -1.245199 -4.811859 -103.966553
v -0.725136 -2.861624 -103.966553
v -0.465105 -4.161781 -103.966553
v -1.635246 0.908829 -103.966553
v -2.740380 -4.876866 -103.966553
v -2.025293 -0.846382 -103.966553
v -2.025293 0.063727 -103.966553
v -2.350332 -1.496460 -103.966553
v -2.610364 -2.991640 -103.966553
v -3.455465 -3.381687 -103.966553
v -5.145668 -4.746850 -103.966553
v -4.950645 -3.251672 -103.966553
v -6.835872 -3.251672 -103.966553
v -6.510832 -4.811859 -103.966553
v -5.145668 -4.876866 -103.966553
v -7.030896 -6.307038 -103.966553
v -7.615965 -3.121656 -103.966553
v -7.290927 -7.217148 -103.966553
v -8.136028 -8.842344 -103.966553
v -7.941004 -3.446694 -103.966553
v -6.965887 -9.037367 -103.966553
v -6.250802 -7.347164 -103.966553
v -5.600723 -9.037367 -103.966553
v -4.950645 -7.412171 -103.966553
v -4.040535 -7.217148 -103.966553
v -3.130426 -8.907351 -103.966553
v -2.935403 -8.842344 -103.966553
v -2.415341 -7.412171 -103.966553
v -1.895277 -7.477180 -103.966553
v 0.314987 -7.412171 -103.966553
v 0.770042 -8.842344 -103.966553
v 1.355114 -9.362406 -103.966553
v -8.916122 -6.372046 -103.966553
v -8.591083 -8.257273 -103.966553
v -10.411303 -3.251672 -103.966553
v -9.306169 -6.762093 -103.966553
v -9.891239 -6.827101 -103.966553
v -10.281286 -6.502062 -103.966553
v -10.476311 -5.786976 -103.966553
v -11.321411 -3.641718 -103.966553
v -11.126388 -4.876866 -103.966553
v -15.091864 -4.811859 -103.966553
v -11.906482 -3.576710 -103.966553
v -13.271646 -3.316679 -103.966553
v -15.806951 -3.446694 -103.966553
v -15.481913 -4.941875 -103.966553
v -16.392021 -4.876866 -103.966553
v -16.847076 -3.381687 -103.966553
v -17.302132 -6.762093 -103.966553
v -16.392021 -6.177022 -103.966553
v -17.432146 -3.576710 -103.966553
v -17.822193 -6.632078 -103.966553
v -17.822193 -3.966758 -103.966553
v -18.407263 -6.112015 -103.966553
v -18.407263 -4.876866 -103.966553
v -22.632772 -6.502062 -103.966553
v -21.397621 -4.876866 -103.966553
v -21.657654 -4.681843 -103.966553
v -23.217842 -4.291796 -103.966553
v -23.542881 -6.372046 -103.966553
v -24.517998 -4.746850 -103.966553
v -25.753147 -6.307038 -103.966553
v -26.013178 -4.616836 -103.966553
v -26.338217 -6.957117 -103.966553
v -26.208202 -4.941875 -103.966553
v -28.483471 -4.811859 -103.966553
v -27.183319 -6.957117 -103.966553
v -28.288452 -7.737210 -103.966553
v -29.328573 -7.932234 -103.966553
v -29.393583 -4.941875 -103.966553
v -30.563725 -7.477180 -103.966553
v -31.733870 -4.291796 -103.966553
v -31.343815 -7.412171 -103.966553
v -32.513962 -8.062250 -103.966553
v -32.513962 -5.136898 -103.966553
v -33.424068 -8.127257 -103.966553
v -35.504318 -5.136898 -103.966553
v -34.204163 -7.542187 -103.966553
v -34.594212 -7.867227 -103.966553
v -35.374306 -8.257273 -103.966553
v -36.284416 -8.192266 -103.966553
v -36.284416 -4.746850 -103.966553
v -39.014740 -7.282156 -103.966553
v -38.689705 -4.551827 -103.966553
v -39.924850 -4.746850 -103.966553
v -39.794838 -7.542187 -103.966553
v -39.989861 -7.477180 -103.966553
v -40.704948 -4.811859 -103.966553
v -40.379910 -7.217148 -103.966553
v -41.160000 -5.916992 -103.966553
v -41.160000 -5.136898 -103.966553
v 1.420122 -10.012484 -103.966553
v 1.680153 -10.337522 -103.966553
v 2.070198 -10.337522 -103.966553
v 2.200214 -10.207508 -103.966553
v 2.395237 -9.687444 -103.966553
v 2.460245 -8.907351 -103.966553
v 2.850294 -7.477180 -103.966553
v 3.240339 -6.957117 -103.966553
v 3.890417 -7.022125 -103.966553
v 3.955425 -8.582312 -103.966553
v 4.280466 -7.607194 -103.966553
v 4.280466 -8.452297 -103.966553
v 8.570980 -11.247633 -103.966553
v 8.570980 -11.572672 -103.966553
v 8.635990 -10.792578 -103.966553
v 8.635990 -11.702686 -103.966553
v 8.766006 -10.532547 -103.966553
v 10.716239 -10.532547 -103.966553
v 11.366316 -11.702686 -103.966553
v 11.626347 -10.727570 -103.966553
v 11.626347 -11.312641 -103.966553
v 2.720277 1.623915 -103.966553
v 2.915300 1.298876 -103.966553
v 2.720277 1.883946 -103.966553
v 3.110325 2.599032 -103.966553
v 5.905661 1.103853 -103.966553
v 6.035677 2.404009 -103.966553
v 6.230700 1.363884 -103.966553
v 6.490730 2.859063 -103.966553
v 7.205816 1.103853 -103.966553
v 7.985910 2.469016 -103.966553
v 9.286068 3.249110 -103.966553
v 10.911261 4.549267 -103.966553
v 9.806129 3.964196 -103.966553
v 11.106285 1.103853 -103.966553
v 11.171295 4.484259 -103.966553
v 11.691356 4.159220 -103.966553
v 12.146412 0.908829 -103.966553
v 12.211418 5.459375 -103.966553
v 12.341434 8.644760 -103.966553
v 12.471449 -0.521343 -103.966553
v 12.991512 8.644760 -103.966553
v 12.406443 -9.362406 -103.966553
v 12.211418 -7.672203 -103.966553
v 11.561340 -2.211546 -103.966553
v 12.016397 -6.502062 -103.966553
v 11.496331 -5.266913 -103.966553
v 11.431324 -4.616836 -103.966553
v 9.741121 -2.211546 -103.966553
v 10.391201 -4.941875 -103.966553
v 10.131170 -3.966758 -103.966553
v 10.196177 -4.551827 -103.966553
v 8.961027 -3.381687 -103.966553
v 7.010793 -2.016523 -103.966553
v 7.270825 -3.511703 -103.966553
v 6.035677 -3.641718 -103.966553
v 4.930544 -1.626476 -103.966553
v 4.215456 -3.446694 -103.966553
v 3.955425 -2.406570 -103.966553
v 3.565378 -3.121656 -103.966553
v 3.565378 -2.796617 -103.966553
v -18.212240 -14.368009 -103.966553
v -18.212240 -14.758054 -103.966553
v -17.757185 -13.847946 -103.966553
v -15.806951 -12.742813 -103.966553
v -13.336654 -12.612795 -103.966553
v -12.296528 -12.677805 -103.966553
v -10.476311 -12.222750 -103.966553
v -8.786107 -12.287757 -103.966553
v -11.386419 -12.287757 -103.966553
v -7.875997 -12.287757 -103.966553
v -7.420942 -12.352766 -103.966553
v -5.730738 -13.652922 -103.966553
v -4.560598 -14.172984 -103.966553
v -1.245199 -14.172984 -103.966553
v -2.415341 -13.977960 -103.966553
v -3.845512 -13.847946 -103.966553
v 2.915300 -14.237991 -103.966553
v 12.991512 -14.758054 -103.966553
v 8.310949 -14.042969 -103.966553
v 6.880777 -13.847946 -103.966553
v 4.150447 -14.107977 -103.966553
v 2.980309 -14.172984 -103.966553
v 5.515613 -13.912952 -103.966553
v 10.586225 -13.782938 -103.966553
v 9.286068 -13.912952 -103.966553
v 12.146412 -12.287757 -103.966553
v 10.976268 -12.937836 -103.966553
v 10.651232 -13.262875 -103.966553
v 12.341434 -11.507662 -103.966553
vn 0.1219 -0.7979 0.5904
vn 0.7286 0.4177 0.5429
vn -0.8285 0.1254 0.5458
vn 0.0743 -0.6767 0.7325
vn 0.0255 -0.7145 0.6992
vn -0.5774 0.5774 0.5773
vn 0.0249 -0.6985 0.7152
vn 0.3690 -0.2669 0.8903
vn -0.0430 -0.6912 0.7214
vn 0.4391 -0.4696 0.7659
vn 0.7076 -0.3702 0.6019
vn 0.5672 -0.4585 0.6841
vn 0.5427 -0.1937 0.8173
vn 0.2865 -0.4065 0.8676
vn 0.4441 -0.6735 0.5909
vn -0.0737 -0.7079 0.7025
vn -0.0075 -0.7094 0.7047
vn 0.0512 -0.7206 0.6915
vn -0.1797 -0.5391 0.8229
vn 0.5441 0.1407 0.8271
vn -0.5469 -0.6116 0.5717
vn 0.7233 -0.0900 0.6847
vn 0.7196 0.0284 0.6938
vn 0.6281 0.0376 0.7772
vn 0.7215 0.2769 0.6347
vn 0.6876 0.0513 0.7242
vn 0.7443 -0.0299 0.6672
vn 0.7071 0.1770 0.6846
vn 0.5151 0.3008 0.8026
vn 0.7040 0.3466 0.6199
vn 0.5606 0.2186 0.7987
vn 0.4407 0.5154 0.7350
vn 0.2807 0.6070 0.7435
vn 0.3833 0.6514 0.6548
vn 0.1901 0.5418 0.8187
vn 0.0456 0.7405 0.6705
vn 0.0176 0.6539 0.7564
vn -0.0328 0.7344 0.6780
vn 0.1587 0.7162 0.6796
vn 0.1141 0.6539 0.7479
vn 0.8421 0.0471 0.5372
vn 0.1294 0.6252 0.7697
vn -0.8421 -0.0470 0.5373
vn -0.0273 0.7104 0.7033
vn 0.1756 0.7355 0.6544
vn 0.5068 0.5591 0.6561
vn 0.2631 0.4916 0.8302
vn 0.0478 0.7198 0.6925
vn 0.1334 0.7494 0.6485
vn 0.4710 0.6347 0.6126
vn 0.1728 -0.7321 0.6589
vn 0.7684 -0.2720 0.5793
vn -0.8208 -0.1919 0.5379
vn 0.8428 -0.0132 0.5380
vn -0.1069 0.6584 0.7450
vn -0.1288 0.7310 0.6701
vn -0.0676 0.7492 0.6589
vn -0.0641 -0.7231 0.6878
vn 0.0306 -0.7158 0.6976
vn -0.8391 0.0840 0.5374
vn 0.8430 0.0265 0.5372
vn 0.1819 -0.7084 0.6820
vn 0.1129 -0.6479 0.7533
vn -0.2506 -0.7440 0.6194
vn -0.0009 -0.7117 0.7024
vn -0.0056 -0.7008 0.7134
vn 0.1239 -0.3836 0.9152
vn -0.2752 -0.4928 0.8255
vn 0.5774 0.5774 0.5774
vn 0.6320 -0.1150 0.7664
vn -0.2031 -0.5789 0.7897
vn -0.1942 -0.7315 0.6536
vn 0.4898 -0.5975 0.6349
vn -0.1386 -0.7773 0.6137
vn 0.7315 -0.1942 0.6536
vn -0.2646 -0.3584 0.8953
vn -0.3358 -0.7205 0.6067
vn -0.0429 -0.3110 0.9494
vn 0.1914 -0.7794 0.5966
vn -0.3873 -0.6322 0.6711
vn -0.6663 -0.3816 0.6406
vn -0.0526 -0.2707 0.9612
vn 0.2190 -0.7698 0.5995
vn -0.3955 -0.6399 0.6589
vn -0.6086 -0.4254 0.6699
vn -0.1914 -0.7794 0.5966
vn -0.6517 -0.3644 0.6652
vn 0.7053 0.0476 0.7073
vn 0.6302 -0.4828 0.6081
vn 0.7266 -0.0178 0.6869
vn -0.7173 0.2971 0.6303
vn -0.7320 -0.1502 0.6645
vn -0.2971 0.7173 0.6303
vn -0.4528 -0.6553 0.6047
vn -0.0155 -0.7118 0.7022
vn 0.0975 0.7282 0.6784
vn 0.4183 -0.6768 0.6057
vn 0.6401 0.4889 0.5927
vn 0.7321 -0.1728 0.6589
vn -0.7272 0.0895 0.6806
vn -0.7310 -0.2025 0.6517
vn -0.6600 0.3737 0.6517
vn -0.3900 -0.6887 0.6112
vn 0.0421 0.7186 0.6942
vn 0.2686 0.7053 0.6560
vn 0.6984 0.3636 0.6164
vn 0.5774 -0.5774 0.5774
vn -0.6513 -0.4694 0.5962
vn -0.1643 -0.7082 0.6866
vn -0.7321 0.1554 0.6632
vn -0.4716 0.6355 0.6114
vn -0.0448 0.7192 0.6934
vn 0.0512 0.7206 0.6915
vn -0.0484 -0.7200 0.6923
vn 0.0143 0.6776 0.7353
vn 0.0815 -0.7260 0.6828
vn -0.0358 0.7171 0.6961
vn 0.0575 -0.6708 0.7394
vn 0.3352 0.7074 0.6222
vn 0.3731 -0.7013 0.6074
vn 0.7247 0.2587 0.6387
vn 0.7310 -0.2025 0.6517
vn 0.7665 -0.0841 0.6367
vn 0.6095 0.4889 0.6240
vn 0.6240 -0.1248 0.7714
vn 0.1728 0.7321 0.6589
vn 0.2767 -0.7153 0.6417
vn 0.6859 0.0919 0.7219
vn 0.7486 -0.2642 0.6081
vn -0.4297 0.6716 0.6036
vn -0.0038 -0.7177 0.6963
vn -0.6295 0.1486 0.7627
vn -0.7322 0.1608 0.6619
vn -0.7001 0.2304 0.6758
vn -0.4446 0.3417 0.8280
vn -0.1098 0.6289 0.7697
vn 0.2840 -0.2997 0.9108
vn 0.0311 0.7159 0.6975
vn 0.0567 0.6852 0.7262
vn 0.2768 -0.4096 0.8693
vn 0.5646 -0.5922 0.5749
vn 0.6680 -0.2114 0.7135
vn -0.2401 0.7493 0.6172
vn 0.3231 0.2135 0.9220
vn -0.3960 -0.6645 0.6337
vn -0.2007 0.5443 0.8145
vn -0.0598 -0.7223 0.6890
vn 0.0608 0.6959 0.7156
vn 0.0187 -0.7127 0.7012
vn -0.0543 0.6730 0.7376
vn -0.0339 0.7399 0.6719
vn 0.1368 -0.7221 0.6781
vn 0.1069 -0.6585 0.7450
vn 0.0860 0.7024 0.7066
vn 0.0327 0.6882 0.7248
vn -0.0013 0.7132 0.7010
vn -0.2149 -0.5652 0.7965
vn -0.5358 -0.2735 0.7988
vn -0.0792 -0.2496 0.9651
vn -0.6902 -0.3048 0.6563
vn -0.1224 0.7439 0.6570
vn 0.3330 -0.6928 0.6396
vn -0.2239 -0.7448 0.6286
vn -0.6426 -0.4130 0.6454
vn -0.5986 -0.2842 0.7490
vn -0.0937 0.6321 0.7692
vn -0.2635 -0.5020 0.8238
vn 0.1011 -0.6571 0.7470
vn 0.1039 0.6904 0.7159
vn 0.0501 0.7304 0.6812
vn 0.0039 0.6938 0.7201
vn 0.0932 -0.7404 0.6657
vn 0.2784 -0.2990 0.9128
vn -0.0964 0.7392 0.6666
vn 0.1265 -0.7681 0.6277
vn 0.6931 -0.3784 0.6135
vn -0.3955 0.6399 0.6589
vn -0.3519 -0.6665 0.6572
vn -0.5681 0.4579 0.6838
vn -0.1836 -0.5590 0.8086
vn -0.2656 0.4865 0.8324
vn -0.0182 -0.7314 0.6818
vn 0.1956 0.5869 0.7857
vn 0.3209 0.6742 0.6651
vn -0.0349 0.7609 0.6479
vn -0.0594 -0.6914 0.7200
vn -0.0814 0.6476 0.7576
vn 0.2280 -0.5328 0.8150
vn -0.3619 0.7092 0.6050
vn 0.3173 -0.7124 0.6260
vn -0.2509 0.4742 0.8439
vn -0.0309 0.7275 0.6854
vn 0.1886 -0.5941 0.7819
vn 0.2918 -0.6902 0.6622
vn -0.0635 -0.7557 0.6519
vn 0.0422 0.6529 0.7563
vn -0.1458 -0.6581 0.7387
vn -0.2176 0.7647 0.6065
vn 0.1320 -0.6132 0.7788
vn 0.2139 -0.7188 0.6615
vn -0.2355 0.5379 0.8094
vn -0.2177 -0.7402 0.6362
vn 0.1486 0.6295 0.7627
vn 0.0123 -0.4818 0.8762
vn 0.4003 -0.6120 0.6821
vn 0.1478 -0.7435 0.6522
vn -0.1432 -0.7191 0.6800
vn 0.2004 0.7179 0.6667
vn -0.0000 -0.6186 0.7857
vn -0.0277 0.7314 0.6814
vn -0.0835 0.6936 0.7155
vn 0.0000 -0.7664 0.6424
vn -0.3228 -0.6600 0.6784
vn -0.2612 0.7118 0.6520
vn -0.5431 -0.5179 0.6609
vn -0.6996 0.3600 0.6172
vn -0.7049 -0.2874 0.6485
vn -0.3394 -0.7062 0.6214
vn 0.2971 -0.7173 0.6303
vn 0.6299 -0.4056 0.6624
vn 0.7177 -0.1612 0.6775
vn 0.3733 -0.3274 0.8680
vn -0.2455 0.5070 0.8262
vn -0.3182 0.7245 0.6115
vn 0.4032 0.6708 0.6224
vn 0.2123 -0.6931 0.6889
vn 0.7295 0.2209 0.6473
vn 0.6624 -0.4485 0.6000
vn -0.7206 0.0512 0.6915
vn -0.7321 -0.1728 0.6589
vn -0.7062 0.2206 0.6728
vn -0.4183 -0.6768 0.6057
vn -0.4183 0.6768 0.6057
vn 0.0768 0.7253 0.6841
vn 0.3722 -0.6954 0.6147
vn 0.6283 0.5079 0.5893
vn 0.7295 -0.2209 0.6473
vn -0.4102 -0.6725 0.6161
vn -0.7318 0.1866 0.6555
vn -0.3840 0.6988 0.6036
vn 0.2321 -0.7376 0.6341
vn -0.2048 0.5451 0.8129
vn 0.1165 -0.5546 0.8239
vn -0.2075 0.7644 0.6105
vn -0.0954 -0.7279 0.6790
vn -0.0842 0.5865 0.8055
vn -0.4428 0.4838 0.7549
vn -0.0932 0.7671 0.6347
vn -0.4924 0.5678 0.6597
vn -0.0634 -0.6821 0.7285
vn 0.2890 0.6802 0.6736
vn -0.1183 0.3621 0.9246
vn -0.3612 -0.3753 0.8536
vn -0.6499 0.1390 0.7472
vn -0.5644 0.5879 0.5795
vn -0.6007 0.0817 0.7953
vn 0.5875 0.5687 0.5757
vn 0.0347 -0.8426 0.5374
vn -0.6945 -0.0979 0.7128
vn -0.2762 0.4625 0.8425
vn -0.6521 -0.1888 0.7343
vn -0.7150 -0.1819 0.6751
vn -0.2065 -0.3123 0.9273
vn 0.0249 0.6985 0.7152
vn -0.3171 -0.7455 0.5863
vn -0.4551 -0.3173 0.8320
vn -0.7123 -0.2103 0.6696
vn -0.1221 -0.6233 0.7724
vn 0.0888 0.6881 0.7202
vn 0.0638 -0.7010 0.7103
vn -0.0007 -0.7294 0.6841
vn -0.1893 0.7580 0.6242
vn -0.2090 -0.7130 0.6693
vn -0.4796 0.5358 0.6949
vn -0.6768 -0.4183 0.6057
vn -0.7225 0.2715 0.6358
vn -0.5774 -0.5774 0.5773
vn -0.4682 0.5746 0.6713
vn -0.2108 0.7221 0.6589
vn 0.0035 0.7196 0.6944
vn -0.1101 0.6368 0.7631
vn -0.0118 0.7189 0.6950
vn 0.0135 0.7026 0.7115
vn -0.1748 0.7200 0.6716
vn 0.2937 0.6970 0.6541
vn 0.3470 0.5829 0.7348
vn -0.0025 0.5837 0.8120
vn 0.0622 0.6867 0.7243
vn 0.0912 0.7095 0.6988
vn -0.1265 0.7460 0.6538
vn -0.2221 0.5483 0.8062
vn 0.5774 -0.5774 0.5773
vn 0.0010 0.6743 0.7385
vn 0.0319 0.7259 0.6871
vn -0.0687 0.6937 0.7170
vn -0.3153 0.7053 0.6349
vn -0.0679 0.7142 0.6966
vn -0.3352 0.3436 0.8773
vn -0.0823 0.7060 0.7034
vn -0.4669 0.3581 0.8086
vn -0.4431 0.5874 0.6772
vn -0.6896 0.3373 0.6408
vn -0.6750 0.0942 0.7318
vn 0.0136 0.8434 0.5370
vn 0.1219 -0.7979 -0.5904
vn -0.8285 0.1254 -0.5457
vn 0.7286 0.4177 -0.5429
vn 0.0743 -0.6767 -0.7325
vn -0.5774 0.5774 -0.5773
vn 0.0255 -0.7145 -0.6992
vn 0.0249 -0.6985 -0.7152
vn 0.3690 -0.2669 -0.8903
vn -0.0430 -0.6912 -0.7214
vn 0.4391 -0.4696 -0.7659
vn 0.7076 -0.3702 -0.6019
vn 0.5672 -0.4585 -0.6841
vn 0.5427 -0.1937 -0.8173
vn 0.2865 -0.4065 -0.8676
vn 0.4441 -0.6735 -0.5909
vn -0.0737 -0.7079 -0.7025
vn -0.0075 -0.7094 -0.7047
vn 0.0512 -0.7206 -0.6915
vn -0.1797 -0.5391 -0.8229
vn 0.5441 0.1407 -0.8271
vn -0.5469 -0.6116 -0.5717
vn 0.7233 -0.0900 -0.6846
vn 0.7196 0.0284 -0.6939
vn 0.6281 0.0376 -0.7772
vn 0.7215 0.2769 -0.6347
vn 0.6877 0.0513 -0.7241
vn 0.7443 -0.0299 -0.6672
vn 0.7071 0.1770 -0.6846
vn 0.5152 0.3008 -0.8026
vn 0.7040 0.3466 -0.6199
vn 0.5606 0.2186 -0.7987
vn 0.4407 0.5154 -0.7350
vn 0.2807 0.6070 -0.7435
vn 0.3833 0.6514 -0.6548
vn 0.1900 0.5418 -0.8187
vn 0.0456 0.7405 -0.6705
vn 0.0176 0.6539 -0.7564
vn -0.0328 0.7344 -0.6780
vn 0.1587 0.7162 -0.6796
vn 0.1141 0.6539 -0.7479
vn 0.8421 0.0471 -0.5372
vn 0.1294 0.6252 -0.7697
vn -0.0273 0.7104 -0.7033
vn -0.8421 -0.0470 -0.5373
vn 0.1756 0.7355 -0.6544
vn 0.5068 0.5591 -0.6561
vn 0.2631 0.4916 -0.8302
vn 0.0478 0.7198 -0.6925
vn 0.1334 0.7494 -0.6485
vn 0.4710 0.6347 -0.6126
vn 0.1728 -0.7321 -0.6589
vn 0.7684 -0.2720 -0.5793
vn -0.8208 -0.1919 -0.5379
vn -0.1069 0.6584 -0.7450
vn 0.8428 -0.0132 -0.5380
vn -0.1288 0.7310 -0.6701
vn -0.0676 0.7492 -0.6589
vn -0.0641 -0.7231 -0.6878
vn -0.8391 0.0840 -0.5374
vn 0.0306 -0.7158 -0.6976
vn 0.8430 0.0265 -0.5372
vn 0.1819 -0.7084 -0.6820
vn 0.1129 -0.6479 -0.7533
vn -0.2506 -0.7440 -0.6194
vn -0.0009 -0.7117 -0.7024
vn -0.0056 -0.7008 -0.7134
vn 0.1239 -0.3836 -0.9152
vn -0.2752 -0.4928 -0.8255
vn 0.5774 0.5774 -0.5774
vn 0.6320 -0.1150 -0.7664
vn -0.2031 -0.5789 -0.7897
vn -0.1942 -0.7315 -0.6536
vn 0.4898 -0.5975 -0.6349
vn -0.1386 -0.7773 -0.6137
vn 0.7315 -0.1942 -0.6536
vn -0.2646 -0.3584 -0.8953
vn -0.3358 -0.7205 -0.6067
vn -0.0429 -0.3110 -0.9494
vn 0.1914 -0.7794 -0.5966
vn -0.3873 -0.6322 -0.6711
vn -0.6663 -0.3816 -0.6406
vn -0.0526 -0.2707 -0.9612
vn 0.2190 -0.7698 -0.5995
vn -0.3955 -0.6399 -0.6589
vn -0.6085 -0.4254 -0.6699
vn -0.1914 -0.7794 -0.5966
vn -0.6517 -0.3644 -0.6653
vn 0.7053 0.0476 -0.7073
vn 0.6302 -0.4827 -0.6081
vn 0.7266 -0.0178 -0.6868
vn -0.7172 0.2971 -0.6303
vn -0.2971 0.7173 -0.6303
vn -0.7320 -0.1502 -0.6645
vn -0.4528 -0.6553 -0.6047
vn -0.0155 -0.7118 -0.7022
vn 0.0975 0.7282 -0.6784
vn 0.4183 -0.6768 -0.6057
vn 0.6401 0.4889 -0.5927
vn 0.7321 -0.1728 -0.6589
vn -0.7272 0.0895 -0.6806
vn -0.6600 0.3737 -0.6517
vn -0.7310 -0.2025 -0.6517
vn -0.3900 -0.6887 -0.6112
vn 0.0421 0.7186 -0.6942
vn 0.2686 0.7053 -0.6560
vn 0.6984 0.3636 -0.6164
vn 0.5774 -0.5774 -0.5774
vn -0.6513 -0.4695 -0.5962
vn -0.7321 0.1554 -0.6632
vn -0.1643 -0.7082 -0.6866
vn -0.4716 0.6355 -0.6114
vn -0.0448 0.7192 -0.6934
vn 0.0512 0.7206 -0.6915
vn -0.0484 -0.7200 -0.6923
vn 0.0143 0.6776 -0.7353
vn 0.0815 -0.7260 -0.6828
vn -0.0358 0.7171 -0.6961
vn 0.0575 -0.6708 -0.7394
vn 0.3352 0.7074 -0.6222
vn 0.3731 -0.7013 -0.6074
vn 0.7247 0.2587 -0.6387
vn 0.7310 -0.2025 -0.6517
vn 0.7665 -0.0841 -0.6367
vn 0.6240 -0.1248 -0.7714
vn 0.6095 0.4889 -0.6240
vn 0.1728 0.7321 -0.6589
vn 0.2767 -0.7153 -0.6417
vn 0.6859 0.0919 -0.7219
vn 0.7486 -0.2642 -0.6081
vn -0.4297 0.6716 -0.6036
vn -0.0038 -0.7177 -0.6963
vn -0.6295 0.1486 -0.7627
vn -0.7322 0.1608 -0.6619
vn -0.7001 0.2304 -0.6758
vn -0.4446 0.3417 -0.8280
vn -0.1098 0.6289 -0.7697
vn 0.2840 -0.2997 -0.9108
vn 0.0311 0.7159 -0.6975
vn 0.0567 0.6852 -0.7262
vn 0.2768 -0.4096 -0.8693
vn 0.5646 -0.5922 -0.5749
vn 0.6680 -0.2114 -0.7135
vn -0.2401 0.7493 -0.6172
vn 0.3231 0.2135 -0.9220
vn -0.3960 -0.6645 -0.6337
vn -0.2007 0.5443 -0.8145
vn -0.0598 -0.7223 -0.6890
vn 0.0608 0.6959 -0.7156
vn 0.0187 -0.7127 -0.7012
vn -0.0543 0.6730 -0.7376
vn -0.0339 0.7399 -0.6719
vn 0.1368 -0.7221 -0.6781
vn 0.1069 -0.6585 -0.7450
vn 0.0861 0.7024 -0.7066
vn 0.0327 0.6882 -0.7248
vn -0.0013 0.7132 -0.7010
vn -0.2149 -0.5652 -0.7965
vn -0.5358 -0.2735 -0.7988
vn -0.0792 -0.2496 -0.9651
vn -0.6902 -0.3048 -0.6563
vn -0.1224 0.7439 -0.6570
vn 0.3330 -0.6928 -0.6396
vn -0.2239 -0.7448 -0.6286
vn -0.6426 -0.4130 -0.6454
vn -0.5986 -0.2842 -0.7490
vn -0.0937 0.6321 -0.7692
vn -0.2635 -0.5020 -0.8238
vn 0.1011 -0.6571 -0.7470
vn 0.1039 0.6904 -0.7159
vn 0.0501 0.7304 -0.6812
vn 0.0039 0.6938 -0.7201
vn 0.0932 -0.7404 -0.6657
vn 0.2784 -0.2990 -0.9128
vn -0.0964 0.7392 -0.6666
vn 0.1265 -0.7681 -0.6277
vn 0.6931 -0.3784 -0.6135
vn -0.3955 0.6399 -0.6589
vn -0.3519 -0.6665 -0.6572
vn -0.5681 0.4579 -0.6838
vn -0.1836 -0.5590 -0.8086
vn -0.2656 0.4865 -0.8324
vn -0.0182 -0.7314 -0.6818
vn 0.1956 0.5869 -0.7857
vn 0.3209 0.6742 -0.6651
vn -0.0349 0.7609 -0.6479
vn -0.0594 -0.6914 -0.7200
vn -0.0814 0.6476 -0.7576
vn 0.2280 -0.5328 -0.8150
vn -0.3619 0.7092 -0.6050
vn 0.3173 -0.7124 -0.6260
vn -0.2509 0.4742 -0.8439
vn -0.0309 0.7275 -0.6854
vn 0.1886 -0.5941 -0.7819
vn 0.2918 -0.6902 -0.6622
vn -0.0635 -0.7557 -0.6519
vn 0.0422 0.6529 -0.7563
vn -0.1458 -0.6581 -0.7387
vn -0.2176 0.7647 -0.6065
vn 0.1320 -0.6132 -0.7788
vn 0.2139 -0.7188 -0.6615
vn -0.2355 0.5379 -0.8094
vn -0.2177 -0.7402 -0.6362
vn 0.1486 0.6295 -0.7627
vn 0.0123 -0.4818 -0.8762
vn 0.4003 -0.6120 -0.6821
vn 0.1478 -0.7435 -0.6522
vn -0.1432 -0.7191 -0.6800
vn 0.2004 0.7179 -0.6667
vn -0.0000 -0.6186 -0.7857
vn -0.0277 0.7314 -0.6814
vn -0.0835 0.6936 -0.7155
vn 0.0000 -0.7664 -0.6424
vn -0.3228 -0.6600 -0.6784
vn -0.2612 0.7118 -0.6520
vn -0.5431 -0.5179 -0.6609
vn -0.6996 0.3600 -0.6172
vn -0.7049 -0.2874 -0.6485
vn -0.3394 -0.7062 -0.6214
vn 0.2971 -0.7173 -0.6303
vn 0.6299 -0.4056 -0.6624
vn 0.7177 -0.1612 -0.6775
vn 0.3733 -0.3274 -0.8680
vn -0.2454 0.5070 -0.8262
vn -0.3182 0.7245 -0.6115
vn 0.4033 0.6708 -0.6224
vn 0.2123 -0.6931 -0.6889
vn 0.7295 0.2209 -0.6473
vn 0.6624 -0.4485 -0.6000
vn -0.7206 0.0512 -0.6915
vn -0.7062 0.2206 -0.6728
vn -0.7321 -0.1728 -0.6589
vn -0.4183 -0.6768 -0.6057
vn -0.4183 0.6768 -0.6057
vn 0.0768 0.7253 -0.6841
vn 0.3722 -0.6954 -0.6147
vn 0.6283 0.5079 -0.5893
vn 0.7295 -0.2209 -0.6473
vn -0.7318 0.1866 -0.6555
vn -0.4102 -0.6725 -0.6160
vn -0.3840 0.6988 -0.6036
vn 0.2321 -0.7376 -0.6341
vn -0.2048 0.5451 -0.8129
vn 0.1165 -0.5546 -0.8239
vn -0.2075 0.7644 -0.6105
vn -0.0954 -0.7279 -0.6790
vn -0.0842 0.5865 -0.8055
vn -0.4428 0.4838 -0.7549
vn -0.0932 0.7671 -0.6347
vn -0.4924 0.5678 -0.6597
vn -0.0634 -0.6821 -0.7285
vn 0.2890 0.6802 -0.6736
vn -0.1183 0.3621 -0.9246
vn -0.3612 -0.3753 -0.8536
vn -0.6499 0.1390 -0.7472
vn -0.5644 0.5879 -0.5795
vn -0.6007 0.0817 -0.7953
vn 0.5875 0.5687 -0.5757
vn 0.0347 -0.8426 -0.5374
vn -0.6945 -0.0979 -0.7128
vn -0.2762 0.4625 -0.8425
vn -0.6521 -0.1888 -0.7343
vn -0.7150 -0.1819 -0.6751
vn -0.2065 -0.3123 -0.9273
vn 0.0249 0.6985 -0.7152
vn -0.3171 -0.7455 -0.5863
vn -0.4551 -0.3173 -0.8320
vn -0.7123 -0.2103 -0.6696
vn -0.1221 -0.6233 -0.7724
vn 0.0888 0.6881 -0.7202
vn 0.0638 -0.7010 -0.7103
vn -0.0007 -0.7294 -0.6841
vn -0.1893 0.7580 -0.6242
vn -0.2090 -0.7130 -0.6692
vn -0.4796 0.5358 -0.6949
vn -0.6768 -0.4183 -0.6057
vn -0.7173 0.2971 -0.6303
vn -0.7225 0.2715 -0.6358
vn -0.4682 0.5746 -0.6713
vn -0.5774 -0.5774 -0.5773
vn -0.2108 0.7221 -0.6589
vn 0.0035 0.7196 -0.6944
vn -0.1101 0.6368 -0.7631
vn -0.0118 0.7189 -0.6950
vn 0.0135 0.7026 -0.7115
vn -0.1748 0.7200 -0.6716
vn 0.2937 0.6970 -0.6541
vn 0.3470 0.5829 -0.7348
vn -0.0025 0.5837 -0.8120
vn 0.0622 0.6867 -0.7243
vn 0.0912 0.7095 -0.6988
vn -0.1265 0.7460 -0.6538
vn -0.2221 0.5483 -0.8062
vn 0.5773 -0.5774 -0.5774
vn 0.0010 0.6743 -0.7385
vn 0.0319 0.7259 -0.6871
vn -0.0687 0.6937 -0.7170
vn -0.3153 0.7053 -0.6349
vn -0.0679 0.7142 -0.6966
vn -0.3352 0.3436 -0.8773
vn -0.0823 0.7060 -0.7034
vn -0.4669 0.3581 -0.8086
vn -0.4431 0.5874 -0.6772
vn -0.6896 0.3373 -0.6408
vn -0.6750 0.0942 -0.7318
vn 0.0136 0.8434 -0.5370
usemtl Lit
s 1
f 1//1 2//2 3//3
f 2//4 4//5 5//6
f 4//5 6//7 5//6
f 7//8 2//4 5//6
f 6//7 8//9 5//6
f 9//10 7//8 5//6
f 10//11 7//8 9//10
f 11//12 9//10 5//6
f 12//13 11//12 5//6
f 8//9 13//14 5//6
f 14//15 13//14 8//9
f 15//16 14//15 8//9
f 13//14 16//17 5//6
f 16//17 17//18 5//6
f 17//18 18//19 5//6
f 19//20 12//13 5//6
f 20//21 19//20 5//6
f 19//20 21//22 12//13
f 22//23 12//13 21//22
f 19//20 20//21 23//24
f 19//20 23//24 24//25
f 24//25 23//24 25//26
f 26//27 25//26 23//24
f 23//24 20//21 27//28
f 27//28 20//21 28//29
f 28//29 20//21 29//30
f 29//30 20//21 30//31
f 30//31 20//21 31//32
f 31//32 20//21 32//33
f 32//33 20//21 33//34
f 33//34 20//21 34//35
f 34//35 20//21 35//36
f 35//36 20//21 36//37
f 36//37 20//21 37//38
f 37//38 20//21 38//39
f 38//39 20//21 39//40
f 40//41 39//40 20//21
f 41//42 20//43 42//44
f 42//44 20//43 43//45
f 43//45 20//43 44//46
f 44//46 20//43 45//47
f 45//47 20//43 46//48
f 47//49 20//43 41//42
f 46//48 20//43 48//50
f 20//43 49//51 48//50
f 50//52 48//50 49//51
f 40//53 47//54 51//55
f 52//56 40//53 51//55
f 53//57 51//55 47//54
f 54//58 55//59 56//60
f 57//61 56//60 55//59
f 58//62 56//63 18//19
f 59//64 58//62 18//19
f 18//19 56//63 5//6
f 56//63 60//65 5//6
f 60//65 61//66 5//6
f 61//66 62//67 5//6
f 63//68 62//67 61//66
f 5//6 62//67 64//69
f 65//70 62//67 63//68
f 62//67 66//71 64//69
f 67//72 66//71 62//67
f 66//71 68//73 64//69
f 69//74 68//73 66//71
f 70//75 64//69 68//73
f 71//76 65//70 63//68
f 72//77 71//76 63//68
f 73//78 65//70 71//76
f 74//79 73//78 71//76
f 75//80 74//79 71//76
f 76//81 75//80 71//76
f 77//82 65//70 73//78
f 78//83 77//82 73//78
f 79//84 78//83 73//78
f 80//85 79//84 73//78
f 81//86 65//70 77//82
f 82//87 81//86 77//82
f 65//70 81//86 83//88
f 81//86 84//89 83//88
f 85//90 83//88 84//89
f 86//91 87//92 88//93
f 87//92 89//94 88//93
f 89//94 90//95 88//93
f 88//93 90//95 91//96
f 90//95 92//97 91//96
f 91//96 92//97 93//98
f 94//99 93//98 92//97
f 95//100 96//101 97//102
f 96//101 98//103 97//102
f 97//102 98//103 99//93
f 99//93 98//103 100//104
f 100//104 98//103 101//105
f 101//105 98//103 102//106
f 103//107 102//106 98//103
f 104//108 105//109 106//110
f 106//110 105//109 107//111
f 107//111 105//109 108//112
f 108//112 105//109 109//113
f 105//109 110//114 109//113
f 109//113 110//114 111//115
f 110//114 112//116 111//115
f 111//115 112//116 113//117
f 112//116 114//118 113//117
f 113//117 114//118 115//119
f 114//118 116//120 115//119
f 115//119 116//120 117//121
f 118//122 117//121 116//120
f 119//123 120//124 121//125
f 122//126 121//125 120//124
f 122//126 123//127 121//125
f 121//125 123//127 124//128
f 125//129 124//128 123//127
f 126//130 123//127 122//126
f 127//131 123//127 126//130
f 128//132 127//131 126//130
f 128//132 126//130 129//133
f 130//134 127//131 128//132
f 131//135 127//131 130//134
f 132//136 127//131 131//135
f 133//137 127//131 132//136
f 134//138 133//137 132//136
f 135//139 133//137 134//138
f 136//140 133//137 135//139
f 137//141 133//137 136//140
f 138//142 136//140 135//139
f 139//143 138//142 135//139
f 140//144 138//142 139//143
f 139//143 141//145 140//144
f 142//146 141//145 139//143
f 141//145 143//147 140//144
f 140//144 143//147 144//148
f 143//147 145//149 144//148
f 144//148 145//149 146//150
f 146//150 145//149 147//151
f 145//149 148//152 147//151
f 148//152 149//153 147//151
f 147//151 149//153 150//154
f 150//154 149//153 151//155
f 151//155 149//153 152//156
f 149//153 153//157 152//156
f 153//157 154//158 152//156
f 155//159 141//145 142//146
f 156//160 141//145 155//159
f 157//161 155//159 142//146
f 158//162 155//159 157//161
f 159//163 158//162 157//161
f 160//164 159//163 157//161
f 161//165 160//164 157//161
f 162//166 161//165 157//161
f 163//167 161//165 162//166
f 164//168 163//167 162//166
f 165//169 164//168 162//166
f 166//170 164//168 165//169
f 167//171 164//168 166//170
f 168//172 164//168 167//171
f 169//173 168//172 167//171
f 170//174 169//173 167//171
f 170//174 171//175 169//173
f 172//176 169//173 171//175
f 173//177 171//175 170//174
f 174//178 171//175 173//177
f 175//179 174//178 173//177
f 176//180 174//178 175//179
f 177//181 176//180 175//179
f 178//182 176//180 177//181
f 179//183 178//182 177//181
f 180//184 178//182 179//183
f 181//185 178//182 180//184
f 182//186 178//182 181//185
f 183//187 182//186 181//185
f 184//188 182//186 183//187
f 185//189 184//188 183//187
f 186//190 184//188 185//189
f 187//191 186//190 185//189
f 188//192 186//190 187//191
f 189//193 186//190 188//192
f 190//194 189//193 188//192
f 191//195 190//194 188//192
f 192//196 191//195 188//192
f 193//197 191//195 192//196
f 194//198 193//197 192//196
f 195//199 193//197 194//198
f 196//200 195//199 194//198
f 197//201 196//200 194//198
f 198//202 196//200 197//201
f 199//203 198//202 197//201
f 200//204 198//202 199//203
f 201//205 200//204 199//203
f 202//206 201//205 199//203
f 203//207 202//206 199//203
f 204//208 203//207 199//203
f 205//209 203//207 204//208
f 206//210 205//209 204//208
f 207//211 205//209 206//210
f 208//212 205//209 207//211
f 209//213 208//212 207//211
f 210//214 209//213 207//211
f 211//215 209//213 210//214
f 212//101 211//215 210//214
f 213//216 212//101 210//214
f 214//217 215//218 154//158
f 215//218 216//219 154//158
f 154//158 216//219 152//156
f 216//219 217//220 152//156
f 217//220 218//221 152//156
f 218//221 219//222 152//156
f 152//156 219//222 220//223
f 220//223 219//222 221//224
f 221//224 219//222 222//225
f 219//222 223//226 222//225
f 222//225 223//226 224//227
f 225//228 224//227 223//226
f 226//229 227//230 228//231
f 227//230 229//232 228//231
f 228//231 229//232 230//233
f 230//233 229//232 231//234
f 229//232 232//235 231//234
f 231//234 232//235 233//236
f 234//237 233//236 232//235
f 235//101 236//238 237//239
f 237//239 236//238 238//240
f 236//238 239//241 238//240
f 238//240 239//241 240//242
f 239//241 241//243 240//242
f 240//242 241//243 242//244
f 241//243 243//245 242//244
f 242//244 243//245 244//246
f 244//246 243//245 245//247
f 245//247 243//245 246//248
f 247//249 245//247 246//248
f 243//245 248//250 246//248
f 246//248 248//250 249//251
f 249//251 248//250 250//252
f 248//250 251//253 250//252
f 250//252 251//253 252//254
f 252//254 251//253 253//255
f 251//253 254//256 253//255
f 255//257 253//255 254//256
f 255//257 254//256 256//258
f 257//259 256//258 254//256
f 258//260 257//259 254//256
f 259//261 257//259 258//260
f 260//262 259//261 258//260
f 261//263 260//262 258//260
f 262//264 261//263 258//260
f 263//265 261//263 262//264
f 264//266 263//265 262//264
f 265//267 263//265 264//266
f 266//268 264//266 262//264
f 267//269 266//268 262//264
f 268//270 266//268 267//269
f 269//271 268//270 267//269
f 270//272 269//271 267//269
f 271//273 269//271 270//272
f 272//274 271//273 270//272
f 273//275 271//273 272//274
f 274//91 273//275 272//274
f 275//276 276//277 277//278
f 277//278 276//277 278//279
f 278//279 276//277 279//280
f 279//280 276//277 280//281
f 280//281 276//277 281//282
f 281//282 276//277 282//283
f 283//284 280//281 281//282
f 282//283 276//277 284//113
f 284//113 276//277 285//285
f 285//285 276//277 286//286
f 286//286 276//277 287//287
f 287//287 276//277 288//288
f 289//289 287//287 288//288
f 290//290 287//287 289//289
f 288//288 276//277 291//291
f 276//277 292//292 291//291
f 291//291 292//292 293//293
f 294//294 291//291 293//293
f 295//295 291//291 294//294
f 296//296 291//291 295//295
f 297//297 295//295 294//294
f 293//293 292//292 298//298
f 299//299 293//293 298//298
f 298//298 292//292 300//300
f 301//301 298//298 300//300
f 302//302 298//298 301//301
f 300//300 292//292 303//303
f 255//304 303//303 292//292
f 304//305 306//306 305//307
f 305//308 308//309 307//310
f 307//310 308//309 309//311
f 310//312 308//309 305//308
f 309//311 308//309 311//313
f 312//314 308//309 310//312
f 313//315 312//314 310//312
f 314//316 308//309 312//314
f 315//317 308//309 314//316
f 311//313 308//309 316//318
f 317//319 311//313 316//318
f 318//320 311//313 317//319
f 316//318 308//309 319//321
f 319//321 308//309 320//322
f 320//322 308//309 321//323
f 322//324 308//309 315//317
f 323//325 308//309 322//324
f 322//324 315//317 324//326
f 325//327 324//326 315//317
f 322//324 326//328 323//325
f 322//324 327//329 326//328
f 327//329 328//330 326//328
f 329//331 326//328 328//330
f 326//328 330//332 323//325
f 330//332 331//333 323//325
f 331//333 332//334 323//325
f 332//334 333//335 323//325
f 333//335 334//336 323//325
f 334//336 335//337 323//325
f 335//337 336//338 323//325
f 336//338 337//339 323//325
f 337//339 338//340 323//325
f 338//340 339//341 323//325
f 339//341 340//342 323//325
f 340//342 341//343 323//325
f 341//343 342//344 323//325
f 343//345 323//325 342//344
f 344//346 345//347 323//348
f 345//347 346//349 323//348
f 346//349 347//350 323//348
f 347//350 348//351 323//348
f 348//351 349//352 323//348
f 350//353 344//346 323//348
f 349//352 351//354 323//348
f 323//348 351//354 352//355
f 353//356 352//355 351//354
f 343//357 354//358 350//359
f 355//360 354//358 343//357
f 356//361 350//359 354//358
f 357//362 359//363 358//364
f 360//365 358//364 359//363
f 361//366 321//323 359//367
f 362//368 321//323 361//366
f 321//323 308//309 359//367
f 359//367 308//309 363//369
f 363//369 308//309 364//370
f 364//370 308//309 365//371
f 366//372 364//370 365//371
f 308//309 367//373 365//371
f 368//374 366//372 365//371
f 365//371 367//373 369//375
f 370//376 365//371 369//375
f 369//375 367//373 371//377
f 372//378 369//375 371//377
f 373//379 371//377 367//373
f 374//380 366//372 368//374
f 375//381 366//372 374//380
f 376//382 374//380 368//374
f 377//383 374//380 376//382
f 378//384 374//380 377//383
f 379//385 374//380 378//384
f 380//386 376//382 368//374
f 381//387 376//382 380//386
f 382//388 376//382 381//387
f 383//389 376//382 382//388
f 384//390 380//386 368//374
f 385//391 380//386 384//390
f 368//374 386//392 384//390
f 384//390 386//392 387//393
f 388//394 387//393 386//392
f 389//395 391//396 390//397
f 390//397 391//396 392//398
f 392//398 391//396 393//399
f 391//396 394//400 393//399
f 393//399 394//400 395//401
f 394//400 396//402 395//401
f 397//403 395//401 396//402
f 398//404 400//405 399//406
f 399//406 400//405 401//407
f 400//405 402//396 401//407
f 402//396 403//408 401//407
f 403//408 404//409 401//407
f 404//409 405//410 401//407
f 406//411 401//407 405//410
f 407//412 409//413 408//414
f 409//413 410//415 408//414
f 410//415 411//416 408//414
f 411//416 412//417 408//414
f 408//414 412//417 413//418
f 412//417 414//419 413//418
f 413//418 414//419 415//420
f 414//419 416//421 415//420
f 415//420 416//421 417//422
f 416//421 418//423 417//422
f 417//422 418//423 419//424
f 418//423 420//425 419//424
f 421//426 419//424 420//425
f 422//427 424//428 423//429
f 425//430 423//429 424//428
f 425//430 424//428 426//431
f 424//428 427//432 426//431
f 428//433 426//431 427//432
f 429//434 425//430 426//431
f 430//435 429//434 426//431
f 431//436 429//434 430//435
f 431//436 432//437 429//434
f 433//438 431//436 430//435
f 434//439 433//438 430//435
f 435//440 434//439 430//435
f 436//441 435//440 430//435
f 437//442 435//440 436//441
f 438//443 437//442 436//441
f 439//444 438//443 436//441
f 440//445 439//444 436//441
f 441//446 438//443 439//444
f 442//447 438//443 441//446
f 443//448 442//447 441//446
f 442//447 443//448 444//449
f 445//450 442//447 444//449
f 444//449 443//448 446//451
f 443//448 447//452 446//451
f 446//451 447//452 448//453
f 447//452 449//454 448//453
f 449//454 450//455 448//453
f 448//453 450//455 451//456
f 451//456 450//455 452//457
f 450//455 453//458 452//457
f 453//458 454//459 452//457
f 454//459 455//460 452//457
f 452//457 455//460 456//461
f 456//461 455//460 457//462
f 458//463 445//450 444//449
f 459//464 458//463 444//449
f 460//465 445//450 458//463
f 461//466 460//465 458//463
f 462//467 460//465 461//466
f 463//468 460//465 462//467
f 464//469 460//465 463//468
f 465//470 460//465 464//469
f 466//471 465//470 464//469
f 467//472 465//470 466//471
f 468//473 465//470 467//472
f 469//474 468//473 467//472
f 470//475 469//474 467//472
f 471//476 470//475 467//472
f 472//477 470//475 471//476
f 473//478 470//475 472//477
f 473//478 472//477 474//479
f 475//480 474//479 472//477
f 476//481 473//478 474//479
f 477//482 476//481 474//479
f 478//483 476//481 477//482
f 479//484 478//483 477//482
f 480//485 478//483 479//484
f 481//486 480//485 479//484
f 482//487 480//485 481//486
f 483//488 482//487 481//486
f 484//489 483//488 481//486
f 485//490 484//489 481//486
f 486//491 484//489 485//490
f 487//492 486//491 485//490
f 488//493 486//491 487//492
f 489//494 488//493 487//492
f 490//495 488//493 489//494
f 491//496 490//495 489//494
f 492//497 491//496 489//494
f 493//498 491//496 492//497
f 494//499 491//496 493//498
f 495//500 491//496 494//499
f 496//501 495//500 494//499
f 497//502 495//500 496//501
f 498//503 497//502 496//501
f 499//504 497//502 498//503
f 500//505 497//502 499//504
f 501//506 500//505 499//504
f 502//507 500//505 501//506
f 503//508 502//507 501//506
f 504//509 502//507 503//508
f 505//510 502//507 504//509
f 506//511 502//507 505//510
f 507//512 502//507 506//511
f 508//513 507//512 506//511
f 509//514 507//512 508//513
f 510//515 509//514 508//513
f 511//516 510//515 508//513
f 512//517 510//515 511//516
f 513//518 510//515 512//517
f 514//519 513//518 512//517
f 515//406 513//518 514//519
f 516//520 513//518 515//406
f 517//521 457//462 518//522
f 518//522 457//462 519//523
f 457//462 455//460 519//523
f 519//523 455//460 520//524
f 520//524 455//460 521//525
f 521//525 455//460 522//526
f 455//460 523//527 522//526
f 523//527 524//528 522//526
f 524//528 525//529 522//526
f 522//526 525//529 526//530
f 525//529 527//531 526//530
f 528//532 526//530 527//531
f 529//533 531//534 530//535
f 530//535 531//534 532//536
f 531//534 533//537 532//536
f 533//537 534//538 532//536
f 532//536 534//538 535//539
f 534//538 536//540 535//539
f 537//541 535//539 536//540
f 538//406 540//542 539//543
f 540//542 541//544 539//543
f 539//543 541//544 542//545
f 541//544 543//546 542//545
f 542//545 543//546 544//547
f 543//546 545//548 544//547
f 544//547 545//548 546//549
f 545//548 547//550 546//549
f 547//550 548//551 546//549
f 548//551 549//552 546//549
f 550//553 549//552 548//551
f 546//549 549//552 551//554
f 549//552 552//555 551//554
f 552//555 553//556 551//554
f 551//554 553//556 554//557
f 553//556 555//558 554//557
f 555//558 556//559 554//557
f 554//557 556//559 557//560
f 558//561 557//560 556//559
f 558//561 559//562 557//560
f 560//563 557//560 559//562
f 561//564 557//560 560//563
f 562//565 561//564 560//563
f 563//566 561//564 562//565
f 564//567 561//564 563//566
f 565//568 561//564 564//567
f 566//569 565//568 564//567
f 567//570 565//568 566//569
f 568//571 567//570 566//569
f 569//572 565//568 567//570
f 570//573 565//568 569//572
f 571//574 570//573 569//572
f 572//575 570//573 571//574
f 573//576 570//573 572//575
f 574//577 573//576 572//575
f 575//578 573//576 574//577
f 576//579 575//578 574//577
f 577//580 575//578 576//579
f 578//581 580//582 579//583
f 580//582 581//584 579//583
f 581//584 582//585 579//583
f 582//585 583//586 579//583
f 583//586 584//587 579//583
f 584//587 585//588 579//583
f 586//589 584//587 583//586
f 585//588 587//417 579//583
f 587//417 588//590 579//583
f 588//590 589//591 579//583
f 589//591 590//592 579//583
f 590//592 591//593 579//583
f 592//594 591//593 590//592
f 593//595 592//594 590//592
f 591//593 594//596 579//583
f 579//583 594//596 595//597
f 594//596 596//598 595//597
f 597//599 596//598 594//596
f 598//600 597//599 594//596
f 599//601 598//600 594//596
f 600//602 597//599 598//600
f 596//598 601//603 595//597
f 602//604 601//603 596//598
f 601//603 603//605 595//597
f 604//606 603//605 601//603
f 605//607 604//606 601//603
f 603//605 606//608 595//597
f 558//609 595//597 606//608
f 31//32 32//33 335//337 334//336
f 133//137 137//141 440//445 436//441
f 40//41 20//21 323//325 343//345
f 227//230 226//229 529//533 530//535
f 137//141 136//140 439//444 440//445
f 65//70 83//88 386//392 368//374
f 289//289 288//288 591//593 592//594
f 226//229 228//231 531//534 529//533
f 136//140 138//142 441//446 439//444
f 84//89 81//86 384//390 387//393
f 288//288 291//291 594//596 591//593
f 143//147 141//145 444//449 446//451
f 90//95 89//94 392//398 393//399
f 39//40 40//41 343//345 342//344
f 242//244 244//246 547//550 545//548
f 144//148 146//150 449//454 447//452
f 97//102 99//93 402//396 400//405
f 53//57 47//54 350//359 356//361
f 44//46 45//47 348//351 347//350
f 250//252 252//254 555//558 553//556
f 153//157 149//153 452//457 456//461
f 260//262 261//263 564//567 563//566
f 160//164 161//165 464//469 463//468
f 57//61 55//59 358//364 360//365
f 20//43 47//49 350//353 323//348
f 11//12 12//13 315//317 314//316
f 168//172 169//173 472//477 471//476
f 141//145 156//160 459//464 444//449
f 268//270 269//271 572//575 571//574
f 49//51 20//43 323//348 352//355
f 176//180 178//182 481//486 479//484
f 110//114 105//109 408//414 413//418
f 71//76 72//77 375//381 374//380
f 271//273 273//275 576//579 574//577
f 21//22 19//20 322//324 324//326
f 61//66 60//65 363//369 364//370
f 184//188 186//190 489//494 487//492
f 113//117 115//119 418//423 416//421
f 292//292 276//277 579//583 595//597
f 162//166 157//161 460//465 465//470
f 68//73 69//74 372//378 371//377
f 19//20 24//25 327//329 322//324
f 194//198 192//196 495//500 497//502
f 76//81 71//76 374//380 379//385
f 166//170 165//169 468//473 469//474
f 70//75 68//73 371//377 373//379
f 200//204 201//205 504//509 503//508
f 266//268 268//270 571//574 569//572
f 79//84 80//85 383//389 382//388
f 208//212 209//213 512//517 511//516
f 272//274 270//272 573//576 575//578
f 85//90 84//89 387//393 388//394
f 27//28 28//29 331//333 330//332
f 89//94 87//92 390//397 392//398
f 284//113 285//285 588//590 587//417
f 121//125 124//128 427//432 424//428
f 265//267 264//266 567//570 568//571
f 175//179 173//177 476//481 478//483
f 94//99 92//97 395//401 397//403
f 217//220 216//219 519//523 520//524
f 264//266 266//268 569//572 567//570
f 100//104 101//105 404//409 403//408
f 96//101 95//100 398//404 399//406
f 183//187 181//185 484//489 486//491
f 108//112 109//113 412//417 411//416
f 148//152 145//149 448//453 451//456
f 95//100 97//102 400//405 398//404
f 189//193 190//194 493//498 492//497
f 152//156 220//223 523//527 455//460
f 154//158 153//157 456//461 457//462
f 118//122 116//120 419//424 421//426
f 35//36 36//37 339//341 338//340
f 192//196 188//192 491//496 495//500
f 111//115 113//117 416//421 414//419
f 124//128 125//129 428//433 427//432
f 224//227 225//228 528//532 527//531
f 161//165 163//167 466//471 464//469
f 120//124 119//123 422//427 423//429
f 199//203 197//201 500//505 502//507
f 119//123 121//125 424//428 422//427
f 134//138 132//136 435//440 437//442
f 43//45 44//46 347//350 346//349
f 234//237 232//235 535//539 537//541
f 301//301 300//300 603//605 604//606
f 169//173 172//176 475//480 472//477
f 205//209 208//212 511//516 508//513
f 300//300 303//303 606//608 603//605
f 240//242 242//244 545//548 543//546
f 221//224 222//225 525//529 524//528
f 140//144 144//148 447//452 443//448
f 52//56 51//55 354//358 355//360
f 179//183 177//181 480//485 482//487
f 149//153 148//152 451//456 452//457
f 51//55 53//57 356//361 354//358
f 127//131 133//137 436//441 430//435
f 75//80 76//81 379//385 378//384
f 251//253 248//250 551//554 554//557
f 187//191 185//189 488//493 490//495
f 232//235 229//232 532//536 535//539
f 275//276 277//278 580//582 578//581
f 237//239 238//240 541//544 540//542
f 83//88 85//90 388//394 386//392
f 193//197 195//199 498//503 496//501
f 139//143 135//139 438//443 442//447
f 164//168 168//172 471//476 467//472
f 201//205 202//206 505//510 504//509
f 245//247 247//249 550//553 548//551
f 181//185 180//184 483//488 484//489
f 91//96 93//98 396//402 394//400
f 145//149 143//147 446//451 448//453
f 99//93 100//104 403//408 402//396
f 151//155 152//156 455//460 454//459
f 253//255 255//257 558//561 556//559
f 107//111 108//112 411//416 410//415
f 209//213 211//215 514//519 512//517
f 159//163 160//164 463//468 462//467
f 261//263 263//265 566//569 564//567
f 115//119 117//121 420//425 418//423
f 8//9 6//7 309//311 311//313
f 218//221 217//220 520//524 521//525
f 170//174 167//171 470//475 473//478
f 196//200 198//202 501//506 499//504
f 125//129 123//127 426//431 428//433
f 291//291 296//296 599//601 594//596
f 59//64 18//19 321//323 362//368
f 14//15 15//16 318//320 317//319
f 233//236 234//237 537//541 536//540
f 257//259 259//261 562//565 560//563
f 123//127 127//131 430//435 426//431
f 177//181 175//179 478//483 480//485
f 277//278 278//279 581//584 580//582
f 206//210 204//208 507//512 509//514
f 132//136 131//135 434//439 435//440
f 243//245 241//243 544//547 546//549
f 285//285 286//286 589//591 588//590
f 212//101 213//216 516//520 515//406
f 249//251 250//252 553//556 552//555
f 185//189 183//187 486//491 488//493
f 30//31 31//32 334//336 333//335
f 220//223 221//224 524//528 523//527
f 294//294 293//293 596//598 597//599
f 303//303 255//304 558//609 606//608
f 142//146 139//143 442//447 445//450
f 3//3 2//2 305//307 306//306
f 191//195 193//197 496//501 494//499
f 38//39 39//40 342//344 341//343
f 4//5 2//4 305//308 307//310
f 228//231 230//233 533//537 531//534
f 293//293 299//299 602//604 596//598
f 147//151 150//154 453//458 450//455
f 2//4 7//8 310//312 305//308
f 302//302 301//301 604//606 605//607
f 156//160 155//159 458//463 459//464
f 273//275 274//91 577//580 576//579
f 46//48 48//50 351//354 349//352
f 281//282 282//283 585//588 584//587
f 204//208 199//203 502//507 507//512
f 55//59 54//58 357//362 358//364
f 239//241 236//238 539//543 542//545
f 155//159 158//162 461//466 458//463
f 283//284 281//282 584//587 586//589
f 54//58 56//60 359//363 357//362
f 244//246 245//247 548//551 547//550
f 163//167 164//168 467//472 466//471
f 290//290 289//289 592//594 593//595
f 172//176 171//175 474//479 475//480
f 34//35 35//36 338//340 337//339
f 210//214 207//211 510//515 513//518
f 42//44 43//45 346//349 345//347
f 216//219 215//218 518//522 519//523
f 62//67 65//70 368//374 365//371
f 252//254 253//255 556//559 555//558
f 171//175 174//178 477//482 474//479
f 180//184 179//183 482//487 483//488
f 225//228 223//226 526//530 528//532
f 67//72 62//67 365//371 370//376
f 258//260 254//256 557//560 561//564
f 188//192 187//191 490//495 491//496
f 58//62 59//64 362//368 361//366
f 78//83 79//84 382//388 381//387
f 195//199 196//200 499//504 498//503
f 66//71 67//72 370//376 369//375
f 231//234 233//236 536//540 534//538
f 87//92 86//91 389//395 390//397
f 203//207 205//209 508//513 506//511
f 69//74 66//71 369//375 372//378
f 241//243 239//241 542//545 544//547
f 86//91 88//93 391//396 389//395
f 211//215 212//101 515//406 514//519
f 74//79 75//80 378//384 377//383
f 255//257 256//258 559//562 558//561
f 102//106 103//107 406//411 405//410
f 72//77 63//68 366//372 375//381
f 263//265 265//267 568//571 566//569
f 112//116 110//114 413//418 415//420
f 92//97 90//95 393//399 395//401
f 223//226 219//222 522//526 526//530
f 13//14 14//15 317//319 316//318
f 15//16 8//9 311//313 318//320
f 229//232 227//230 530//535 532//536
f 129//133 126//130 429//434 432//437
f 16//17 13//14 316//318 319//321
f 236//238 235//101 538//406 539//543
f 17//18 16//17 319//321 320//322
f 135//139 134//138 437//442 438//443
f 235//101 237//239 540//542 538//406
f 103//107 98//103 401//407 406//411
f 279//280 280//281 583//586 582//585
f 150//154 151//155 454//459 453//458
f 106//110 107//111 410//415 409//413
f 24//25 25//26 328//330 327//329
f 157//161 142//146 445//450 460//465
f 20//21 5//6 308//309 323//325
f 116//120 114//118 417//422 419//424
f 32//33 33//34 336//338 335//337
f 158//162 159//163 462//467 461//466
f 22//23 21//22 324//326 325//327
f 248//250 243//245 546//549 551//554
f 287//287 290//290 593//595 590//592
f 167//171 166//170 469//474 470//475
f 278//279 279//280 582//585 581//584
f 126//130 122//126 425//430 429//434
f 255//304 292//292 595//597 558//609
f 2//2 1//1 304//305 305//307
f 29//30 30//31 333//335 332//334
f 131//135 130//134 433//438 434//439
f 296//296 295//295 598//600 599//601
f 1//1 3//3 306//306 304//305
f 174//178 176//180 479//484 477//482
f 286//286 287//287 590//592 589//591
f 254//256 251//253 554//557 557//560
f 295//295 297//297 600//602 598//600
f 37//38 38//39 341//343 340//342
f 138//142 140//144 443//448 441//446
f 182//186 184//188 487//492 485//490
f 259//261 260//262 563//566 562//565
f 146//150 147//151 450//455 449//454
f 47//54 40//53 343//357 350//359
f 262//264 258//260 561//564 565//568
f 190//194 191//195 494//499 493//498
f 297//297 294//294 597//599 600//602
f 10//11 9//10 312//314 313//315
f 45//47 46//48 349//352 348//351
f 6//7 4//5 307//310 309//311
f 48//50 50//52 353//356 351//354
f 9//10 11//12 314//316 312//314
f 198//202 200//204 503//508 501//506
f 165//169 162//166 465//470 468//473
f 207//211 206//210 509//514 510//515
f 40//53 52//56 355//360 343//357
f 18//19 17//18 320//322 321//323
f 215//218 214//217 517//521 518//522
f 270//272 267//269 570//573 573//576
f 173//177 170//174 473//478 476//481
f 56//60 57//61 360//365 359//363
f 25//26 26//27 329//331 328//330
f 269//271 271//273 574//577 572//575
f 56//63 58//62 361//366 359//367
f 282//283 284//113 587//417 585//588
f 222//225 224//227 527//531 525//529
f 276//277 275//276 578//581 579//583
f 60//65 56//63 359//367 363//369
f 33//34 34//35 337//339 336//338
f 230//233 231//234 534//538 533//537
f 63//68 61//66 364//370 366//372
f 5//6 64//69 367//373 308//309
f 12//13 22//23 325//327 315//317
f 41//42 42//44 345//347 344//346
f 238//240 240//242 543//546 541//544
f 178//182 182//186 485//490 481//486
f 64//69 70//75 373//379 367//373
f 299//299 298//298 601//603 602//604
f 247//249 246//248 549//552 550//553
f 280//281 283//284 586//589 583//586
f 77//82 78//83 381//387 380//386
f 246//248 249//251 552//555 549//552
f 186//190 189//193 492//497 489//494
f 298//298 302//302 605//607 601//603
f 82//87 77//82 380//386 385//391
f 28//29 29//30 332//334 331//333
f 88//93 91//96 394//400 391//396
f 47//49 41//42 344//346 350//353
f 267//269 262//264 565//568 570//573
f 50//52 49//51 352//355 353//356
f 256//258 257//259 560//563 559//562
f 93//98 94//99 397//403 396//402
f 197//201 194//198 497//502 500//505
f 98//103 96//101 399//406 401//407
f 101//105 102//106 405//410 404//409
f 202//206 203//207 506//511 505//510
f 105//109 104//108 407//412 408//414
f 7//8 10//11 313//315 310//312
f 104//108 106//110 409//413 407//412
f 73//78 74//79 377//383 376//382
f 274//91 272//274 575//578 577//580
f 109//113 111//115 414//419 412//417
f 213//216 210//214 513//518 516//520
f 114//118 112//116 415//420 417//422
f 117//121 118//122 421//426 420//425
f 214//217 154//158 457//462 517//521
f 36//37 37//38 340//342 339//341
f 122//126 120//124 423//429 425//430
f 80//85 73//78 376//382 383//389
f 26//27 23//24 326//328 329//331
f 128//132 129//133 432//437 431//436
f 23//24 27//28 330//332 326//328
f 219//222 218//221 521//525 522//526
f 130//134 128//132 431//436 433//438
f 81//86 82//87 385//391 384//390
