%YAML 1.1
%TAG !u! tag:unity3d.com,2011:
--- !u!114 &11400000
MonoBehaviour:
  m_ObjectHideFlags: 0
  m_CorrespondingSourceObject: {fileID: 0}
  m_PrefabInstance: {fileID: 0}
  m_PrefabAsset: {fileID: 0}
  m_GameObject: {fileID: 0}
  m_Enabled: 1
  m_EditorHideFlags: 0
  m_Script: {fileID: 11500000, guid: ed88bf29a11b5014481e80a004f5ec77, type: 3}
  m_Name: MeteoriteOre
  m_EditorClassIdentifier: 
  id: 3334
  resourceName: MeteoriteOre
  Icon: {fileID: 21300000, guid: 8669f98f52315554b93c0c8dabfb5c3c, type: 3}
  itemDescription: "A strange ore found only in the deepest depths of the ocean.
    Presumably a relic of an ancient world. Or not, you\u2019re not the expert"
  maxStack: 5
