%YAML 1.1
%TAG !u! tag:unity3d.com,2011:
--- !u!114 &11400000
MonoBehaviour:
  m_ObjectHideFlags: 0
  m_CorrespondingSourceObject: {fileID: 0}
  m_PrefabInstance: {fileID: 0}
  m_PrefabAsset: {fileID: 0}
  m_GameObject: {fileID: 0}
  m_Enabled: 1
  m_EditorHideFlags: 0
  m_Script: {fileID: 11500000, guid: ed88bf29a11b5014481e80a004f5ec77, type: 3}
  m_Name: Pufferfish
  m_EditorClassIdentifier: 
  id: 4444
  resourceName: Pufferfish
  Icon: {fileID: 21300000, guid: ec040e6fe2969e740851c090244b1e78, type: 3}
  itemDescription: "A spiky fish that puffs up when threatened as their defense mechanism.
    They are also poisonous. Thankfully, you\u2019re not thinking of eating one anytime
    soon here"
  maxStack: 5
