%YAML 1.1
%TAG !u! tag:unity3d.com,2011:
--- !u!114 &11400000
MonoBehaviour:
  m_ObjectHideFlags: 0
  m_CorrespondingSourceObject: {fileID: 0}
  m_PrefabInstance: {fileID: 0}
  m_PrefabAsset: {fileID: 0}
  m_GameObject: {fileID: 0}
  m_Enabled: 1
  m_EditorHideFlags: 0
  m_Script: {fileID: 11500000, guid: ed88bf29a11b5014481e80a004f5ec77, type: 3}
  m_Name: SeaAnemone
  m_EditorClassIdentifier: 
  id: 0000
  resourceName: Sea Anemone
  Icon: {fileID: 21300000, guid: 3a83f544f7ad7fa46a9a6f8b94dc7711, type: 3}
  itemDescription: "A colorful, jelly-like coral that can be found on hard surfaces
    in the ocean. Don\u2019t be fooled by it\u2019s unassuming appearance-- they
    are predators with deadly toxins in their tentacles"
  maxStack: 5
