%YAML 1.1
%TAG !u! tag:unity3d.com,2011:
--- !u!114 &11400000
MonoBehaviour:
  m_ObjectHideFlags: 0
  m_CorrespondingSourceObject: {fileID: 0}
  m_PrefabInstance: {fileID: 0}
  m_PrefabAsset: {fileID: 0}
  m_GameObject: {fileID: 0}
  m_Enabled: 1
  m_EditorHideFlags: 0
  m_Script: {fileID: 11500000, guid: ed88bf29a11b5014481e80a004f5ec77, type: 3}
  m_Name: Snailfish
  m_EditorClassIdentifier: 
  id: 6666
  resourceName: Snailfish
  Icon: {fileID: 21300000, guid: 6bd69dff534517d44962be6cffc6cce3, type: 3}
  itemDescription: A tadpole-shaped fish that can be found in both shallow waters
    and deep parts of the ocean. Has wing-like fins to help them swim around
  maxStack: 5
