%YAML 1.1
%TAG !u! tag:unity3d.com,2011:
--- !u!114 &11400000
MonoBehaviour:
  m_ObjectHideFlags: 0
  m_CorrespondingSourceObject: {fileID: 0}
  m_PrefabInstance: {fileID: 0}
  m_PrefabAsset: {fileID: 0}
  m_GameObject: {fileID: 0}
  m_Enabled: 1
  m_EditorHideFlags: 0
  m_Script: {fileID: 11500000, guid: ed88bf29a11b5014481e80a004f5ec77, type: 3}
  m_Name: Starfish
  m_EditorClassIdentifier: 
  id: 0001
  resourceName: Starfish
  Icon: {fileID: 21300000, guid: dd02f99c5f405c54fa957a50a12d3399, type: 3}
  itemDescription: The true stars of the ocean. The tips of their five limbs can
    detect a variety of senses. You could probably give it a high five
  maxStack: 5
