%YAML 1.1
%TAG !u! tag:unity3d.com,2011:
--- !u!1001 &6207448139962928137
PrefabInstance:
  m_ObjectHideFlags: 0
  serializedVersion: 2
  m_Modification:
    m_TransformParent: {fileID: 0}
    m_Modifications:
    - target: {fileID: 329084657922153638, guid: 46edea6cfa954a14893b6ce0e8aa3c4e, type: 3}
      propertyPath: hurtSprite
      value: 
      objectReference: {fileID: 21300000, guid: 7723386edb6ce2f46a57b65c715efeda, type: 3}
    - target: {fileID: 329084657922153638, guid: 46edea6cfa954a14893b6ce0e8aa3c4e, type: 3}
      propertyPath: fishMaterial
      value: 
      objectReference: {fileID: 2747226371917735873, guid: 57443790910ef264e9fe82c37e5ba318, type: 3}
    - target: {fileID: 329084657922153638, guid: 46edea6cfa954a14893b6ce0e8aa3c4e, type: 3}
      propertyPath: startingHealth
      value: 20
      objectReference: {fileID: 0}
    - target: {fileID: 2898681412891322273, guid: 46edea6cfa954a14893b6ce0e8aa3c4e, type: 3}
      propertyPath: m_RootOrder
      value: 0
      objectReference: {fileID: 0}
    - target: {fileID: 2898681412891322273, guid: 46edea6cfa954a14893b6ce0e8aa3c4e, type: 3}
      propertyPath: m_LocalPosition.x
      value: -2.1
      objectReference: {fileID: 0}
    - target: {fileID: 2898681412891322273, guid: 46edea6cfa954a14893b6ce0e8aa3c4e, type: 3}
      propertyPath: m_LocalPosition.y
      value: 0
      objectReference: {fileID: 0}
    - target: {fileID: 2898681412891322273, guid: 46edea6cfa954a14893b6ce0e8aa3c4e, type: 3}
      propertyPath: m_LocalPosition.z
      value: 0
      objectReference: {fileID: 0}
    - target: {fileID: 2898681412891322273, guid: 46edea6cfa954a14893b6ce0e8aa3c4e, type: 3}
      propertyPath: m_LocalRotation.w
      value: 1
      objectReference: {fileID: 0}
    - target: {fileID: 2898681412891322273, guid: 46edea6cfa954a14893b6ce0e8aa3c4e, type: 3}
      propertyPath: m_LocalRotation.x
      value: -0
      objectReference: {fileID: 0}
    - target: {fileID: 2898681412891322273, guid: 46edea6cfa954a14893b6ce0e8aa3c4e, type: 3}
      propertyPath: m_LocalRotation.y
      value: -0
      objectReference: {fileID: 0}
    - target: {fileID: 2898681412891322273, guid: 46edea6cfa954a14893b6ce0e8aa3c4e, type: 3}
      propertyPath: m_LocalRotation.z
      value: -0
      objectReference: {fileID: 0}
    - target: {fileID: 2898681412891322273, guid: 46edea6cfa954a14893b6ce0e8aa3c4e, type: 3}
      propertyPath: m_LocalEulerAnglesHint.x
      value: 0
      objectReference: {fileID: 0}
    - target: {fileID: 2898681412891322273, guid: 46edea6cfa954a14893b6ce0e8aa3c4e, type: 3}
      propertyPath: m_LocalEulerAnglesHint.y
      value: 0
      objectReference: {fileID: 0}
    - target: {fileID: 2898681412891322273, guid: 46edea6cfa954a14893b6ce0e8aa3c4e, type: 3}
      propertyPath: m_LocalEulerAnglesHint.z
      value: 0
      objectReference: {fileID: 0}
    - target: {fileID: 2898681412891322274, guid: 46edea6cfa954a14893b6ce0e8aa3c4e, type: 3}
      propertyPath: m_Speed
      value: 5.5
      objectReference: {fileID: 0}
    - target: {fileID: 2898681412891322278, guid: 46edea6cfa954a14893b6ce0e8aa3c4e, type: 3}
      propertyPath: m_Name
      value: Anglerfish NavAgent [ChaseAI] Variant Variant 1
      objectReference: {fileID: 0}
    - target: {fileID: 2898681412891322278, guid: 46edea6cfa954a14893b6ce0e8aa3c4e, type: 3}
      propertyPath: m_Layer
      value: 0
      objectReference: {fileID: 0}
    - target: {fileID: 2898681412891322278, guid: 46edea6cfa954a14893b6ce0e8aa3c4e, type: 3}
      propertyPath: m_TagString
      value: Enemy
      objectReference: {fileID: 0}
    - target: {fileID: 2898681413552886231, guid: 46edea6cfa954a14893b6ce0e8aa3c4e, type: 3}
      propertyPath: m_Sprite
      value: 
      objectReference: {fileID: 21300000, guid: 9e67a5fc06c56be4aac1fdaeef6f4fca, type: 3}
    - target: {fileID: 2898681413552886231, guid: 46edea6cfa954a14893b6ce0e8aa3c4e, type: 3}
      propertyPath: m_Materials.Array.data[0]
      value: 
      objectReference: {fileID: 10754, guid: 0000000000000000f000000000000000, type: 0}
    - target: {fileID: 3747534887415998652, guid: 46edea6cfa954a14893b6ce0e8aa3c4e, type: 3}
      propertyPath: attackRate
      value: 0.5
      objectReference: {fileID: 0}
    - target: {fileID: 3747534887415998652, guid: 46edea6cfa954a14893b6ce0e8aa3c4e, type: 3}
      propertyPath: attackDamage
      value: 3
      objectReference: {fileID: 0}
    - target: {fileID: 5823508637929534319, guid: 46edea6cfa954a14893b6ce0e8aa3c4e, type: 3}
      propertyPath: m_IsActive
      value: 0
      objectReference: {fileID: 0}
    - target: {fileID: 8576861784741629963, guid: 46edea6cfa954a14893b6ce0e8aa3c4e, type: 3}
      propertyPath: m_Size.x
      value: 1.922301
      objectReference: {fileID: 0}
    - target: {fileID: 8576861784741629963, guid: 46edea6cfa954a14893b6ce0e8aa3c4e, type: 3}
      propertyPath: m_Size.y
      value: 1.3359404
      objectReference: {fileID: 0}
    - target: {fileID: 8576861784741629963, guid: 46edea6cfa954a14893b6ce0e8aa3c4e, type: 3}
      propertyPath: m_Offset.x
      value: 0.028821826
      objectReference: {fileID: 0}
    - target: {fileID: 8576861784741629963, guid: 46edea6cfa954a14893b6ce0e8aa3c4e, type: 3}
      propertyPath: m_Offset.y
      value: -0.03842926
      objectReference: {fileID: 0}
    - target: {fileID: 8576861784741629963, guid: 46edea6cfa954a14893b6ce0e8aa3c4e, type: 3}
      propertyPath: m_SpriteTilingProperty.oldSize.x
      value: 1.95
      objectReference: {fileID: 0}
    - target: {fileID: 8576861784741629963, guid: 46edea6cfa954a14893b6ce0e8aa3c4e, type: 3}
      propertyPath: m_SpriteTilingProperty.oldSize.y
      value: 1.4
      objectReference: {fileID: 0}
    m_RemovedComponents: []
  m_SourcePrefab: {fileID: 100100000, guid: 46edea6cfa954a14893b6ce0e8aa3c4e, type: 3}
