%YAML 1.1
%TAG !u! tag:unity3d.com,2011:
--- !u!1001 &3871769899235515227
PrefabInstance:
  m_ObjectHideFlags: 0
  serializedVersion: 2
  m_Modification:
    m_TransformParent: {fileID: 0}
    m_Modifications:
    - target: {fileID: 208033519113102685, guid: 4aca48287d946ca4a95a42c4db79cffd, type: 3}
      propertyPath: m_Sprite
      value: 
      objectReference: {fileID: 21300000, guid: 5705d6cba53e634459761189939bbc7d, type: 3}
    - target: {fileID: 208033519113102687, guid: 4aca48287d946ca4a95a42c4db79cffd, type: 3}
      propertyPath: m_LocalRotation.w
      value: 1
      objectReference: {fileID: 0}
    - target: {fileID: 208033519113102687, guid: 4aca48287d946ca4a95a42c4db79cffd, type: 3}
      propertyPath: m_LocalRotation.x
      value: 0
      objectReference: {fileID: 0}
    - target: {fileID: 208033519113102687, guid: 4aca48287d946ca4a95a42c4db79cffd, type: 3}
      propertyPath: m_LocalRotation.z
      value: 0
      objectReference: {fileID: 0}
    - target: {fileID: 208033520448082731, guid: 4aca48287d946ca4a95a42c4db79cffd, type: 3}
      propertyPath: m_RootOrder
      value: 0
      objectReference: {fileID: 0}
    - target: {fileID: 208033520448082731, guid: 4aca48287d946ca4a95a42c4db79cffd, type: 3}
      propertyPath: m_LocalPosition.x
      value: 0
      objectReference: {fileID: 0}
    - target: {fileID: 208033520448082731, guid: 4aca48287d946ca4a95a42c4db79cffd, type: 3}
      propertyPath: m_LocalPosition.y
      value: 0
      objectReference: {fileID: 0}
    - target: {fileID: 208033520448082731, guid: 4aca48287d946ca4a95a42c4db79cffd, type: 3}
      propertyPath: m_LocalPosition.z
      value: 0
      objectReference: {fileID: 0}
    - target: {fileID: 208033520448082731, guid: 4aca48287d946ca4a95a42c4db79cffd, type: 3}
      propertyPath: m_LocalRotation.w
      value: 1
      objectReference: {fileID: 0}
    - target: {fileID: 208033520448082731, guid: 4aca48287d946ca4a95a42c4db79cffd, type: 3}
      propertyPath: m_LocalRotation.x
      value: 0
      objectReference: {fileID: 0}
    - target: {fileID: 208033520448082731, guid: 4aca48287d946ca4a95a42c4db79cffd, type: 3}
      propertyPath: m_LocalRotation.y
      value: 0
      objectReference: {fileID: 0}
    - target: {fileID: 208033520448082731, guid: 4aca48287d946ca4a95a42c4db79cffd, type: 3}
      propertyPath: m_LocalRotation.z
      value: 0
      objectReference: {fileID: 0}
    - target: {fileID: 208033520448082731, guid: 4aca48287d946ca4a95a42c4db79cffd, type: 3}
      propertyPath: m_LocalEulerAnglesHint.x
      value: 0
      objectReference: {fileID: 0}
    - target: {fileID: 208033520448082731, guid: 4aca48287d946ca4a95a42c4db79cffd, type: 3}
      propertyPath: m_LocalEulerAnglesHint.y
      value: 0
      objectReference: {fileID: 0}
    - target: {fileID: 208033520448082731, guid: 4aca48287d946ca4a95a42c4db79cffd, type: 3}
      propertyPath: m_LocalEulerAnglesHint.z
      value: 0
      objectReference: {fileID: 0}
    - target: {fileID: 208033520448082732, guid: 4aca48287d946ca4a95a42c4db79cffd, type: 3}
      propertyPath: m_Name
      value: Octopus NavAgent [FleeAI] Variant 1
      objectReference: {fileID: 0}
    - target: {fileID: 208033520448082732, guid: 4aca48287d946ca4a95a42c4db79cffd, type: 3}
      propertyPath: m_Layer
      value: 0
      objectReference: {fileID: 0}
    - target: {fileID: 208033520448082732, guid: 4aca48287d946ca4a95a42c4db79cffd, type: 3}
      propertyPath: m_TagString
      value: Enemy
      objectReference: {fileID: 0}
    - target: {fileID: 3334949341897926700, guid: 4aca48287d946ca4a95a42c4db79cffd, type: 3}
      propertyPath: hurtSprite
      value: 
      objectReference: {fileID: 21300000, guid: b22c8c443c4c9db4c8bd7e1351d38831, type: 3}
    - target: {fileID: 3334949341897926700, guid: 4aca48287d946ca4a95a42c4db79cffd, type: 3}
      propertyPath: fishMaterial
      value: 
      objectReference: {fileID: 2747226371917735873, guid: 0b21dfcb947a2554abd6a6e318e4d33e, type: 3}
    - target: {fileID: 3334949341897926700, guid: 4aca48287d946ca4a95a42c4db79cffd, type: 3}
      propertyPath: startingHealth
      value: 20
      objectReference: {fileID: 0}
    - target: {fileID: 6191212753959498697, guid: 4aca48287d946ca4a95a42c4db79cffd, type: 3}
      propertyPath: m_IsActive
      value: 0
      objectReference: {fileID: 0}
    - target: {fileID: 6191212753959498699, guid: 4aca48287d946ca4a95a42c4db79cffd, type: 3}
      propertyPath: m_LocalPosition.x
      value: 0
      objectReference: {fileID: 0}
    - target: {fileID: 6191212753959498699, guid: 4aca48287d946ca4a95a42c4db79cffd, type: 3}
      propertyPath: m_LocalPosition.y
      value: 0
      objectReference: {fileID: 0}
    - target: {fileID: 6191212753959498699, guid: 4aca48287d946ca4a95a42c4db79cffd, type: 3}
      propertyPath: m_LocalPosition.z
      value: 0
      objectReference: {fileID: 0}
    - target: {fileID: 6763870459627922561, guid: 4aca48287d946ca4a95a42c4db79cffd, type: 3}
      propertyPath: m_Size.x
      value: 1.4
      objectReference: {fileID: 0}
    - target: {fileID: 6763870459627922561, guid: 4aca48287d946ca4a95a42c4db79cffd, type: 3}
      propertyPath: m_Size.y
      value: 1.45
      objectReference: {fileID: 0}
    - target: {fileID: 6763870459627922561, guid: 4aca48287d946ca4a95a42c4db79cffd, type: 3}
      propertyPath: m_IsTrigger
      value: 1
      objectReference: {fileID: 0}
    - target: {fileID: 6763870459627922561, guid: 4aca48287d946ca4a95a42c4db79cffd, type: 3}
      propertyPath: m_SpriteTilingProperty.oldSize.x
      value: 1.4
      objectReference: {fileID: 0}
    - target: {fileID: 6763870459627922561, guid: 4aca48287d946ca4a95a42c4db79cffd, type: 3}
      propertyPath: m_SpriteTilingProperty.oldSize.y
      value: 1.45
      objectReference: {fileID: 0}
    - target: {fileID: 7393039971907864272, guid: 4aca48287d946ca4a95a42c4db79cffd, type: 3}
      propertyPath: m_IsActive
      value: 0
      objectReference: {fileID: 0}
    m_RemovedComponents: []
  m_SourcePrefab: {fileID: 100100000, guid: 4aca48287d946ca4a95a42c4db79cffd, type: 3}
